case 	 mse_ae 	 mse_none 	 mse_gen 	 ssim_ae 	 ssim_none 	 ssim_gen 
Aanc1	2322.693	2303.371285714286	743.5144285714285	0.9472696593617411	0.9468544437885482	0.9757215919932927
Aanc2	2107.9247142857143	2074.8548571428573	497.53414285714285	0.948717329200383	0.9489812284437569	0.982154492815131
Aanc3	2303.9286428571427	2296.125642857143	341.1025714285714	0.9467551082582505	0.9466775086040299	0.9861665991966679
Aatc1	3177.4236363636364	3099.262272727273	814.3231818181819	0.9349895557209489	0.9357763631883469	0.9738390825252454
Aatc2	2292.967285714286	6922.933071428572	6157.8675	0.9479592181592174	0.8643180687170701	0.8770306762400235
Aatc3	2976.305909090909	3380.5118181818184	1565.1977272727272	0.938171763550788	0.9312795035394349	0.9599993582623788
Abnc1	2153.9995714285715	2200.446	1269.288	0.9498691847171563	0.9479896559568896	0.9652121883634822
Abnc2	2392.362642857143	2263.9847142857143	2018.5617857142856	0.9421383108541315	0.9476179520104253	0.9491665801399294
Abnc3	2178.3375	2357.249142857143	832.5057857142857	0.9484580363727194	0.9459797734166685	0.9744108990704486
Abtc1	4130.729545454546	4799.895909090909	1045.9172727272728	0.9172010235808394	0.9052201866636755	0.9637333529896572
Abtc2	2505.6919285714284	2321.7640714285712	603.0604285714286	0.9440528313289461	0.9463345342112747	0.9784628344062776
Abtc3	3964.5545454545454	4030.105	1443.0295454545455	0.9212504189960303	0.9198782130965297	0.9575718306429127
Acnc1	2700.0237857142856	2844.1935	1003.6144285714286	0.9397973857855524	0.9381761629982545	0.970171933163339
Acnc2	2729.5637142857145	2769.1360714285715	385.87692857142855	0.9387417883040702	0.9378774411938502	0.9857779628358175
Acnc3	2519.625857142857	2789.5725	606.2187857142857	0.9421043893737094	0.9372362418812749	0.9776608795895143
Actc1	3150.7568181818183	3081.528181818182	1725.7240909090908	0.9326064515239463	0.9328529927491112	0.9520353278080848
Actc2	2664.9102857142857	2740.710857142857	462.23485714285715	0.940414736797507	0.9389276117192104	0.9824033628667498
Actc3	5012.836363636364	5020.980909090909	1087.4281818181819	0.9040728373302793	0.9038093475471816	0.9647267498626397
Banc1	2421.716785714286	2644.845428571429	661.9545	0.9447702993211308	0.9401397050199037	0.9763542550178285
Banc2	2529.8440714285716	2584.279285714286	749.2737857142857	0.9430548188371722	0.9416032439446926	0.9761018940780439
Banc3	2697.6085714285714	2435.8365	1469.7507857142857	0.9404464910062503	0.9436719298720471	0.9587308237098059
Batc1	5696.933142857143	5699.905714285715	912.2078571428572	0.8875854967952155	0.8876542392088169	0.9674074560445856
Batc2	2371.7404285714288	2574.432642857143	682.7625	0.9450519507079361	0.9412241967562576	0.9750221357612151
Batc3	4877.246571428572	5078.638285714285	1008.8164285714286	0.9009625989371227	0.8980010350698535	0.9656681329574209
Bbnc1	2359.292785714286	2294.825142857143	460.1912142857143	0.9458584185935953	0.9477000902360887	0.9810288311406851
Bbnc2	2507.549785714286	2324.5508571428572	758.5630714285714	0.9432666901899561	0.9463018250740051	0.9734043247290115
Bbnc3	2512.3802142857144	2407.411285714286	644.1190714285714	0.9432598878521756	0.9454775399113142	0.9788815007238236
Bbtc1	5182.678285714285	5167.815428571428	1887.9544285714285	0.896286368923358	0.8955852861156924	0.9478155291900136
Bbtc2	1954.4657142857143	2830.073785714286	2315.8189285714284	0.952921885447067	0.9358437649656157	0.9422516688858299
Bbtc3	5008.2255	5420.112428571429	1364.2245	0.8992354153443148	0.8919586673597218	0.9587125859526996
Bcnc1	2103.8374285714285	2220.1392857142855	882.4821428571429	0.9489517742710505	0.9479281842430666	0.9710261516518202
Bcnc2	2188.3699285714288	2173.5070714285716	632.4145714285714	0.9464465540301498	0.948338611449529	0.9743345876256545
Bcnc3	2196.358714285714	2173.878642857143	460.93435714285715	0.9484634373354555	0.9487001805897309	0.9821749927087781
Bctc1	5279.101071428571	3574.8887142857143	2898.4429285714286	0.8951439140760278	0.9224021516999915	0.9285040361659055
Bctc2	2334.583285714286	2335.8837857142858	953.6380714285714	0.9455335855214477	0.9455376361314141	0.9692002102257321
Bctc3	4436.748642857143	4353.888214285715	1157.0734285714286	0.9081664828423464	0.9097633469703862	0.9638674281076265
Canc1	2235.9310714285716	2113.869857142857	1101.1519285714285	0.9498998311610344	0.9499877035517917	0.967494813963854
Canc2	2362.6369285714286	2156.229	1308.1172142857142	0.9454145841267119	0.9502601481013638	0.9632023447915204
Canc3	2037.140357142857	1990.322357142857	617.5517142857143	0.9521346851361366	0.9529781670393574	0.9779429443072595
Catc1	5898.621363636364	4200.746363636364	2772.955	0.8859928817823349	0.9166597832995906	0.9311366022693724
Catc2	1848.0105	2047.544357142857	526.1451428571429	0.9551358500450939	0.9518807959916596	0.9805506988355588
Catc3	4240.024090909091	4199.958181818181	2102.2122727272726	0.9135577651495547	0.9150895274910362	0.9427177462260397
Cbnc1	2389.2042857142856	2396.635714285714	906.6342857142857	0.9457134639394524	0.9463305779906519	0.9716697151905227
Cbnc2	2331.6107142857145	2066.1229285714285	1699.0103571428572	0.9445166089338576	0.9511070307614402	0.9585495263224626
Cbnc3	2358.5496428571428	2405.367642857143	407.9854285714286	0.9464894126450178	0.9460667318796258	0.9855275643399873
Ccnc1	2350.746642857143	2397.7504285714285	605.4756428571428	0.9458425498554607	0.9445610677343923	0.9788954018256755
Ccnc2	2807.036357142857	2737.3667142857144	671.9869285714286	0.9339741547120398	0.9360171469091604	0.9746468167274286
Ccnc3	2509.7792142857143	2634.069857142857	935.0595	0.9405548630673413	0.938978066683622	0.9669177698795358
Cbtc1	5443.840454545454	5826.896818181818	1394.030909090909	0.8953365737935163	0.8900041926578115	0.9588960019328515
