case 	 mse_ae 	 mse_none 	 mse_gen 	 ssim_ae 	 ssim_none 	 ssim_gen 
Dnc	1204.4626071302782	3062.6105741008882	3201.5517943098657	0.9636887792930254	0.9294593867755877	0.9266185642755264
Dtc1	1391.3457958921695	2402.8921694480105	1841.5402759948652	0.9548137616930674	0.9320838342321144	0.9387536311805635
Dtc2	1449.7113540467972	799.7292545710267	1003.7955504411201	0.959911144328727	0.9744984803439574	0.9679180904590036
Dtc3	1968.003233256351	1710.9066974595844	992.4780600461894	0.9559397791169554	0.9603863085944618	0.9710573770478736
Enc	1967.8447833888747	2286.218918226096	805.4735965137145	0.9381739769844127	0.9323862924530635	0.9621324532693413
Etc1	742.2963180453313	1228.7844918394032	1092.5809249079814	0.9766535237630636	0.9679701681214677	0.9689558030188724
Etc2	3230.964070431472	3453.077807741117	1526.2583280456852	0.9107503404761679	0.9152915016063722	0.941132469517658
Etc3	1034.463961863309	1315.5422560754444	1437.5874397637183	0.9699221005380532	0.9646751085589634	0.9607219967241867
Fnc	3185.3002070393377	3673.3022774327123	862.4948240165631	0.9178088919804075	0.9079762404466448	0.9578063328978985
Ftc1	1703.4076576576576	1633.6527777777778	578.9763513513514	0.9510969941833725	0.9526044757018206	0.9719302202462524
Ftc2	1171.6433264827626	1581.2893449503574	1198.671983095493	0.9662628768593289	0.9578739455984344	0.9651109077090206
Ftc3	1044.5282517040398	1686.2035935593706	885.203227931907	0.9674460980395512	0.9557505039966782	0.9685041418485358
