Class	Time (s)
2	0.513776448
4	0.045649627
2	0.063569043
2	0.050354525
2	0.043986145
2	0.060359412
2	0.051646855
2	0.054919673
2	0.050319419
2	0.074525708
2	0.050349623
2	0.050351717
2	0.050381457
2	0.051946652
2	0.040248121
2	0.06041984
2	0.060393047
2	0.050323272
2	0.061627708
2	0.050321162
2	0.043743271
2	0.066426046
2	0.051890981
2	0.040343973
2	0.060393799
2	0.085480562
2	0.040256635
2	0.11393818
4	0.052717008
2	0.062778011
2	0.050265658
2	0.043871983
4	0.070444323
4	0.050319486
2	0.050725943
2	0.085123191
2	0.063861428
2	0.054263736
2	0.05030039
2	0.04026849
2	0.055890874
2	0.050296913
2	0.051804797
2	0.053143046
2	0.053885112
1	0.121300292
2	0.053956458
2	0.041519928
2	0.050606737
2	0.042931317
2	0.070424255
2	0.050321699
1	0.055236381
2	0.053657332
2	0.060399423
2	0.040359852
2	0.060407323
2	0.050334623
2	0.054945124
2	0.052386643
2	0.053506768
2	0.050316616
2	0.050406507
2	0.090826442
2	0.060370498
2	0.060584425
1	0.060401207
2	0.050333904
2	0.050330707
2	0.063027444
2	0.060520737
2	0.075194
1	0.065708819
2	0.046314801
2	0.050375682
2	0.120681158
2	0.060684417
2	0.064420537
2	0.044515282
2	0.056553986
2	0.040267974
2	0.106637761
2	0.044045502
2	0.093782929
2	0.040236088
2	0.041845055
2	0.040202232
2	0.145962589
2	0.060482067
2	0.066816648
2	0.063001457
2	0.050412551
1	0.050359119
1	0.050315655
1	0.050334238
1	0.051673067
1	0.082043776
1	0.042460789
1	0.066063593
1	0.053179454
1	0.050340874
1	0.050406165
1	0.060402677
1	0.040282251
1	0.063200964
1	0.060591977
1	0.051315627
1	0.044582878
1	0.055838347
1	0.050326006
1	0.044280116
1	0.052223877
1	0.040259545
1	0.060383069
1	0.089564167
1	0.062577315
1	0.085047374
1	0.072822352
1	0.052997416
1	0.040217907
1	0.050338444
1	0.063573033
1	0.04502226
1	0.041662604
1	0.050342242
1	0.060419268
1	0.060366048
1	0.060403591
1	0.060426303
1	0.040254307
1	0.060424179
1	0.050392435
1	0.065623604
1	0.05033415
1	0.055246084
1	0.06476124
1	0.060572989
1	0.070647241
1	0.062624085
1	0.073507608
1	0.050432633
1	0.040258434
1	0.070451902
1	0.060454826
1	0.046693346
1	0.05427467
1	0.055090264
1	0.050566715
1	0.060432039
1	0.050324337
1	0.044894071
1	0.043360098
1	0.05573778
1	0.064580682
1	0.063148854
1	0.050309714
1	0.050364273
1	0.040588347
1	0.04345116
1	0.052968179
1	0.052759064
1	0.063355019
1	0.067031882
1	0.06042326
1	0.053937739
2	0.060459879
1	0.050322867
1	0.050327772
1	0.052203201
1	0.050404804
1	0.056695111
1	0.053380445
1	0.065417233
1	0.051254495
1	0.050826731
1	0.060392928
1	0.06040046
1	0.060379467
1	0.065253732
1	0.050319687
1	0.060405864
1	0.050328989
1	0.050327944
1	0.050311987
1	0.050800325
1	0.060407509
1	0.060388497
1	0.050302325
1	0.061439567
1	0.05327321
1	0.050362176
1	0.048743093
1	0.050719723
1	0.060375646
1	0.050389049
1	0.050341522
1	0.064012537
1	0.053273782
1	0.070652526
1	0.063876534
1	0.052746376
1	0.054004561
1	0.063756815
1	0.046279266
1	0.050864831
1	0.061389715
1	0.040260252
1	0.05405828
1	0.063800972
1	0.040310245
1	0.051249555
1	0.053452792
1	0.052265747
1	0.084404895
1	0.052728557
1	0.060426608
1	0.062890439
1	0.051667052
1	0.060376037
1	0.051034363
1	0.050436022
1	0.05094819
1	0.054852846
1	0.045546211
1	0.063114344
1	0.060427476
1	0.050374758
1	0.064653072
1	0.061908233
1	0.060392548
1	0.070465288
1	0.046134102
1	0.050453299
1	0.050324221
1	0.06045212
1	0.050327751
1	0.060371381
1	0.065070991
1	0.050782952
1	0.050318357
1	0.072219282
1	0.06044189
1	0.050266824
1	0.070399315
1	0.077649864
1	0.060447156
1	0.070508617
1	0.050326895
1	0.050282526
1	0.060819782
1	0.040510967
1	0.050859505
1	0.070417395
1	0.064906205
1	0.06250945
1	0.060381993
1	0.073856922
1	0.060375325
1	0.05033331
1	0.051208219
1	0.05319542
1	0.074564363
1	0.080712818
1	0.065127041
1	0.060385194
1	0.051836953
1	0.053607494
1	0.06284043
1	0.060500052
1	0.07488586
1	0.060459102
1	0.070446048
1	0.06604011
1	0.075364601
1	0.064287829
1	0.060399122
1	0.070752332
1	0.051792505
1	0.071899373
1	0.07314116
1	0.066784027
1	0.052964885
1	0.060363109
1	0.045809945
1	0.070641175
1	0.050344399
1	0.044972828
1	0.06063177
1	0.064958615
1	0.062591083
1	0.060443685
1	0.050354705
1	0.050335547
1	0.060406465
1	0.056925097
1	0.050261035
1	0.050312147
1	0.060495064
1	0.065957239
1	0.050320479
1	0.094503269
1	0.064219246
1	0.061522282
1	0.06042242
1	0.050379906
1	0.06015236
1	0.060403425
1	0.050431348
1	0.050328107
1	0.061553718
1	0.0603956
1	0.070454396
1	0.060912533
1	0.064540538
1	0.040251295
1	0.063202001
1	0.051844402
1	0.054046293
1	0.072290651
1	0.054274211
1	0.053980348
1	0.051499231
1	0.060344597
1	0.060388109
1	0.060403423
1	0.090989775
1	0.066783398
1	0.084905416
1	0.054794942
1	0.050409894
1	0.052699083
1	0.054364038
1	0.071689774
1	0.063038088
1	0.052846325
1	0.050492197
1	0.060739431
1	0.060387346
1	0.06443116
1	0.058285151
1	0.064016695
1	0.051561925
1	0.063965218
1	0.065067844
1	0.054620024
1	0.071151304
1	0.062995173
1	0.050863682
1	0.060410663
1	0.085708264
1	0.04024327
1	0.084040011
1	0.050334792
1	0.060378546
1	0.066744408
1	0.063959752
1	0.061221771
1	0.063346956
1	0.070731329
1	0.060390219
1	0.082111305
1	0.050371604
1	0.060408263
1	0.05068656
1	0.050322358
1	0.055774143
1	0.061924425
1	0.054779866
1	0.054539869
1	0.073648123
1	0.050326596
1	0.054328113
1	0.063649237
1	0.050339329
1	0.07202013
1	0.07282687
1	0.050354882
1	0.050318483
1	0.07370084
1	0.054945516
1	0.065040658
1	0.064768778
1	0.063912528
1	0.06375702
1	0.050376466
1	0.054076794
1	0.053825035
1	0.055456942
1	0.050332388
1	0.050318804
1	0.050375973
1	0.050366925
1	0.053266942
1	0.048734016
1	0.080921783
1	0.057025561
1	0.060344787
1	0.050332217
1	0.060388426
1	0.050311865
1	0.051467906
1	0.080525174
1	0.050341868
1	0.076588057
1	0.075111525
1	0.081320104
1	0.179819573
1	0.070659493
1	0.060381827
1	0.07325605
1	0.070471703
1	0.050319223
1	0.054047728
1	0.073568466
1	0.07046769
1	0.081773192
1	0.056047299
1	0.052013721
1	0.070450347
1	0.075769923
1	0.074010215
1	0.061249443
1	0.05055907
1	0.061550534
1	0.063661753
1	0.0645988
1	0.046265398
1	0.040404964
1	0.060406129
1	0.060481896
1	0.050320332
1	0.064777842
4	0.052031891
1	0.070461482
1	0.06414651
1	0.056549756
1	0.050444015
1	0.050357926
4	0.053324735
1	0.067650723
1	0.053540751
1	0.050298724
1	0.060395767
1	0.105931167
1	0.095185746
1	0.072611493
1	0.062080743
1	0.050312678
1	0.074383895
1	0.060383948
1	0.050342358
1	0.070446266
1	0.085863923
1	0.051917502
1	0.042967515
1	0.060633737
1	0.044160259
1	0.051847947
1	0.050280129
1	0.060371776
1	0.070440117
1	0.060458295
1	0.083303539
1	0.050309938
1	0.040344439
1	0.050334894
1	0.09628601
1	0.057044774
1	0.06072594
1	0.060618993
1	0.060387206
1	0.050298505
1	0.07043678
1	0.051183444
1	0.051626548
1	0.065904168
1	0.051537675
1	0.070585883
1	0.055107406
1	0.055057518
1	0.041275728
1	0.070497436
1	0.050316343
1	0.065060989
1	0.040308443
1	0.053665784
1	0.060369942
1	0.062800075
1	0.050359878
1	0.045460304
1	0.070707289
1	0.06166745
1	0.060392389
1	0.043545529
1	0.064159649
1	0.06058511
1	0.067738006
1	0.05034115
1	0.06035849
1	0.054100873
1	0.05039737
1	0.060371109
1	0.0503376
1	0.060387341
1	0.055454794
1	0.054529497
1	0.053516274
1	0.060640014
1	0.050643112
1	0.055517826
1	0.060337187
1	0.054293704
1	0.050341389
1	0.060381392
1	0.076309769
1	0.053693515
1	0.078378518
1	0.060368202
1	0.061844062
1	0.053792957
1	0.053045548
1	0.050534314
1	0.061799467
1	0.060388678
1	0.050332058
1	0.060385399
1	0.050421859
1	0.030208197
1	0.06487834
1	0.050335842
2	0.053540499
1	0.051014192
1	0.067888525
1	0.061329743
2	0.050369829
1	0.060955811
1	0.04028903
1	0.065081082
2	0.050317296
2	0.052759329
2	0.074634394
2	0.083425223
2	0.06383337
1	0.060467131
1	0.055794178
1	0.043661315
1	0.060388878
1	0.052007455
1	0.064462398
1	0.082872499
1	0.092397291
1	0.078839226
1	0.070504542
1	0.082410981
1	0.087455537
1	0.082983571
1	0.091620371
1	0.06143174
1	0.070801419
1	0.061144838
1	0.071146399
1	0.05262838
1	0.050386926
1	0.05432147
1	0.054497163
1	0.050279442
1	0.067540195
1	0.050384654
1	0.073946099
1	0.078715344
1	0.060377542
1	0.060526184
1	0.070531488
1	0.076385427
1	0.064259076
1	0.042580351
1	0.060376135
3	0.073501183
1	0.052602319
1	0.053125609
1	0.063735171
1	0.05034133
1	0.062850036
1	0.040257418
1	0.050624718
1	0.040220467
1	0.062929012
1	0.050540683
1	0.057390158
1	0.0612818
1	0.061738969
1	0.054811358
1	0.047768512
1	0.052263963
1	0.053793186
1	0.080753174
1	0.056415079
1	0.062427506
1	0.05032153
1	0.063553006
1	0.050322095
1	0.050318739
1	0.050327372
1	0.073412277
1	0.060400985
1	0.050459583
1	0.06680422
1	0.050341146
1	0.061610938
1	0.053667001
1	0.074028759
1	0.043141037
1	0.043062157
1	0.060605569
1	0.044438894
1	0.057490716
1	0.050550554
1	0.05031556
1	0.061106243
1	0.060403014
1	0.050330468
1	0.052103236
1	0.070445647
1	0.054134412
1	0.042964675
1	0.061699388
1	0.055260959
1	0.05033428
1	0.041968151
1	0.060405156
1	0.04024151
1	0.05037781
1	0.096731312
1	0.071672369
1	0.080521628
1	0.067016937
1	0.050438186
1	0.060450722
1	0.050321668
1	0.060392622
1	0.070485407
1	0.060956164
1	0.053494586
1	0.055428731
1	0.072260235
1	0.06121503
1	0.060399764
1	0.060432337
1	0.066129798
1	0.070441588
1	0.060513031
1	0.066093101
1	0.060474734
1	0.061921891
1	0.060439137
1	0.055747244
1	0.06057935
1	0.050326435
1	0.050343166
1	0.050317839
1	0.050327198
1	0.050316252
1	0.060960488
1	0.042504016
1	0.060600164
1	0.053278327
1	0.06038141
1	0.063698442
1	0.050308813
1	0.05040305
1	0.050282278
2	0.060373058
1	0.050269926
1	0.050800689
1	0.061399125
1	0.07602775
1	0.055157288
1	0.050349459
1	0.081959371
1	0.050341481
1	0.071371024
1	0.073882661
1	0.060941545
1	0.05360746
1	0.052759552
1	0.060387899
1	0.050362997
1	0.060524948
1	0.050327014
1	0.05036974
1	0.06048891
1	0.054673287
1	0.06340882
1	0.050320958
1	0.056473457
1	0.062895702
1	0.044989576
1	0.056468954
1	0.050537495
1	0.05045058
1	0.060383918
1	0.074057266
1	0.054382827
1	0.050329661
1	0.1007917
1	0.139246422
1	0.123556222
1	0.123042956
1	0.102888498
1	0.105118791
1	0.082065925
1	0.072779711
1	0.087965445
1	0.062120859
1	0.060427562
1	0.050331555
1	0.055594174
1	0.070550867
1	0.060627041
1	0.070776224
1	0.074826045
1	0.093504375
1	0.070606374
1	0.071802776
1	0.074468034
1	0.07577738
1	0.061982144
1	0.054184612
1	0.070434345
1	0.056037924
1	0.070677303
1	0.064746789
1	0.07044346
1	0.060444007
1	0.062041223
1	0.060495897
1	0.060771361
1	0.054124291
1	0.062587117
1	0.055374376
1	0.064604264
1	0.084764434
1	0.074382984
1	0.090714385
1	0.050369757
1	0.060483264
1	0.060414105
1	0.06518346
1	0.06194359
1	0.060478275
1	0.060399428
1	0.056530098
1	0.060355757
1	0.063241805
1	0.057160214
1	0.072723853
1	0.050398732
1	0.064656408
1	0.068681243
1	0.060690517
1	0.070479982
1	0.060406341
1	0.060468307
1	0.076502446
1	0.063591428
1	0.070455246
1	0.07617131
1	0.071294878
1	0.061096463
1	0.070468661
1	0.050335925
1	0.064026425
1	0.063931663
1	0.050400114
1	0.052648818
1	0.063166016
1	0.071324552
1	0.054659489
1	0.061503229
1	0.050396121
1	0.060482541
1	0.06337116
1	0.070744887
1	0.065370504
1	0.07146112
1	0.074406999
1	0.055761128
1	0.070678355
1	0.05189316
1	0.052221414
1	0.064884511
1	0.060372722
1	0.073222357
1	0.083034669
1	0.053898977
1	0.063394256
1	0.054741292
1	0.050394272
1	0.071442065
1	0.060377754
1	0.050322859
1	0.06061363
1	0.071070055
1	0.062467717
1	0.063492761
1	0.060392373
1	0.060392687
1	0.062085103
1	0.066547487
1	0.062438675
1	0.045810012
1	0.081361026
1	0.060563359
1	0.073643619
1	0.053429456
1	0.060661886
1	0.060385628
1	0.05030826
1	0.052906598
1	0.050333982
1	0.050406233
1	0.179111249
1	0.074492353
1	0.031243656
