Class	Time (s)
1	0.47396514
1	0.050320205
1	0.060376083
1	0.050489956
1	0.081148698
1	0.050743671
1	0.050317581
1	0.060643332
1	0.040502682
1	0.060399019
1	0.050398063
1	0.060789417
1	0.055108348
1	0.091918873
1	0.061630674
1	0.06037406
1	0.061290212
1	0.060357429
1	0.060412256
1	0.060395619
1	0.060383799
1	0.060672882
1	0.070774111
1	0.080489717
1	0.060363776
1	0.121750642
1	0.060383393
1	0.080756863
1	0.051775386
1	0.060379585
1	0.06189661
1	0.06085068
1	0.06200788
1	0.060390412
1	0.05040635
1	0.050430426
1	0.070795041
1	0.060386447
1	0.06117916
1	0.050538148
1	0.070465669
1	0.051790725
1	0.060465011
1	0.070793199
1	0.052897379
1	0.064707513
1	0.050552844
1	0.060762626
1	0.102256422
1	0.060465419
1	0.07178313
1	0.060341232
1	0.050765958
1	0.120928912
1	0.080956648
1	0.050321359
1	0.057315102
1	0.061005048
1	0.050329364
1	0.060536172
1	0.070592974
1	0.061720714
1	0.060380598
1	0.060876226
1	0.05042718
1	0.060959018
1	0.063196915
1	0.062521463
1	0.060547433
1	0.070855524
1	0.060622842
1	0.060379291
1	0.074242891
1	0.060405921
1	0.065997818
1	0.080536547
1	0.061423248
1	0.070525655
1	0.071436114
1	0.050324066
1	0.060388086
1	0.064659589
1	0.060485399
1	0.071943841
1	0.060728347
1	0.050291391
1	0.050324124
1	0.060389477
1	0.050896809
1	0.060396797
1	0.072541024
1	0.060337541
1	0.090589997
1	0.075497708
1	0.060438895
1	0.070645373
1	0.060368812
1	0.070453871
1	0.071191958
1	0.145446053
1	0.070450384
1	0.061596403
1	0.060837495
1	0.07045102
1	0.060486331
1	0.070752279
1	0.050317583
1	0.05036359
1	0.061133276
1	0.050336038
1	0.050289427
1	0.050353133
1	0.060378593
1	0.060525821
1	0.050293277
1	0.042680762
1	0.050387042
1	0.050355453
1	0.09143037
1	0.050388128
1	0.060429447
2	0.050349233
2	0.040248304
1	0.050336259
1	0.040238131
1	0.040313611
1	0.050324564
1	0.050343848
1	0.040257668
1	0.060394205
1	0.040291337
1	0.050364822
1	0.060574363
1	0.040274445
1	0.050308818
1	0.060389204
1	0.040379831
1	0.050386338
1	0.11124184
1	0.060374939
1	0.050314247
1	0.050330768
1	0.063670636
1	0.040227267
1	0.060766885
1	0.050323014
1	0.040255145
1	0.040262709
1	0.05030343
1	0.080612542
1	0.040281221
1	0.060407242
1	0.050318087
1	0.050359996
1	0.050342906
1	0.070581514
1	0.050351761
1	0.060375625
1	0.052726726
1	0.060394233
1	0.050335712
1	0.040290421
1	0.060506889
1	0.060363156
1	0.050334538
1	0.040257395
1	0.060390789
1	0.050328337
1	0.060401663
1	0.050266459
2	0.05033398
2	0.104137508
1	0.070430608
1	0.061074456
1	0.040904521
1	0.050319492
1	0.050616764
1	0.05032189
2	0.050511863
1	0.044822036
1	0.060410108
1	0.050311037
1	0.040267395
1	0.040234864
1	0.091244647
1	0.040319576
1	0.060382115
1	0.050334102
1	0.040279266
1	0.060411832
1	0.050431894
1	0.052278122
1	0.040254342
1	0.060465291
1	0.060370947
1	0.050335958
1	0.050318509
1	0.05030646
1	0.060365234
1	0.040264802
1	0.050396619
1	0.040259663
1	0.070454981
1	0.05031353
1	0.062000536
1	0.050320446
1	0.060550772
1	0.070443173
1	0.102587069
1	0.050318376
1	0.050335508
1	0.050969597
1	0.050365703
1	0.050420719
1	0.080681335
1	0.050445237
1	0.060427966
1	0.050256683
1	0.091887915
1	0.050279999
1	0.060374752
1	0.05041831
1	0.050310426
1	0.060660953
1	0.050309053
1	0.070459156
1	0.052940015
1	0.070403601
1	0.050744803
1	0.050316568
1	0.050330702
1	0.06032406
1	0.040259857
1	0.06041357
1	0.050435394
1	0.050314633
1	0.050333307
1	0.04019146
1	0.040285883
1	0.050370179
1	0.050351743
1	0.040176094
1	0.050315317
1	0.050319066
1	0.050312933
1	0.050484354
1	0.050326991
1	0.050325852
1	0.060493486
1	0.050307951
1	0.054508945
1	0.050305258
1	0.050330589
1	0.070451421
1	0.040599599
1	0.050313408
1	0.050328375
1	0.040220946
1	0.050346917
1	0.050348663
1	0.050316419
1	0.074822844
2	0.050400879
2	0.040261998
1	0.078180514
1	0.060389771
1	0.040258245
1	0.060391267
1	0.040249934
1	0.040274452
1	0.060363685
1	0.050338394
1	0.050308931
1	0.060983698
1	0.060422565
1	0.061036253
1	0.060488717
1	0.050315839
1	0.050369188
1	0.060429211
2	0.050829919
2	0.060409084
2	0.060373071
1	0.060413088
1	0.050425472
2	0.050610257
1	0.06041577
2	0.060375662
1	0.10122211
1	0.062044306
1	0.050339005
1	0.060795624
1	0.050307871
2	0.100709695
2	0.060381954
1	0.06052843
1	0.060726797
1	0.086263323
1	0.060380132
1	0.090738667
1	0.053027893
1	0.050345755
1	0.050310748
1	0.060392476
1	0.061384296
1	0.050316515
1	0.070448818
1	0.060381493
1	0.050328428
1	0.06030846
1	0.080917528
2	0.060563203
1	0.040257845
1	0.040274565
2	0.070548527
1	0.060551083
1	0.050406858
1	0.051063015
1	0.04026423
1	0.050369466
1	0.050299789
4	0.050435162
1	0.070638654
1	0.060407468
1	0.071385565
1	0.050314265
1	0.050313089
1	0.050341698
2	0.050338843
1	0.06036228
1	0.040561813
1	0.050279307
1	0.050741205
1	0.100708953
1	0.060568326
1	0.050333144
1	0.061435136
1	0.040282451
1	0.050511927
1	0.050322275
1	0.040253512
1	0.050293813
4	0.060387911
4	0.040261867
1	0.050366012
1	0.080804485
1	0.0402624
1	0.060359969
1	0.04106563
1	0.05206974
1	0.050250577
1	0.072986381
1	0.050437526
1	0.070987071
1	0.050675603
1	0.111987114
1	0.060685732
3	0.054668549
1	0.050561764
1	0.050375442
1	0.050328844
1	0.070508713
1	0.050301779
1	0.050352188
1	0.060342022
1	0.040261982
1	0.040252841
1	0.050359741
1	0.060420584
1	0.060864985
1	0.050360245
1	0.080566382
1	0.060533558
1	0.070831788
1	0.050412249
1	0.050328456
1	0.060426577
1	0.061943202
1	0.070564742
1	0.060544674
1	0.050317412
1	0.050319425
1	0.060753373
1	0.050361377
1	0.050360799
1	0.052918927
1	0.050342006
1	0.060691933
1	0.050338376
1	0.060439877
1	0.06081581
1	0.061474476
1	0.060634303
1	0.060326758
1	0.064806538
1	0.070466673
1	0.06045976
1	0.050326975
1	0.050304387
1	0.070456016
1	0.070473656
1	0.050989806
1	0.050432245
1	0.060834328
1	0.050483424
1	0.050464311
1	0.060804143
1	0.050264175
1	0.050340491
1	0.060376426
1	0.050494723
1	0.060381773
1	0.040249823
1	0.05033235
1	0.070600399
1	0.171898487
1	0.061747766
1	0.070612231
1	0.050330027
1	0.050546638
1	0.050467561
1	0.062130476
1	0.050348875
1	0.050317515
1	0.101138308
1	0.060586879
1	0.060373636
1	0.050608986
1	0.070767879
1	0.050366052
1	0.05246228
1	0.050291772
1	0.050371916
1	0.050289927
1	0.060471948
1	0.04031823
1	0.040289094
1	0.070732394
1	0.043350381
1	0.060426516
1	0.050345858
1	0.050424367
1	0.070542622
1	0.040890208
1	0.060391057
1	0.040270756
1	0.060368918
1	0.060836154
1	0.050322039
1	0.060393803
1	0.040251777
1	0.061336144
1	0.080615157
1	0.060375945
1	0.050317012
1	0.040255554
2	0.070504099
1	0.040333738
1	0.040254231
1	0.050310347
1	0.050363063
1	0.050350192
1	0.073478047
1	0.060382918
1	0.04037123
1	0.060364334
1	0.05033072
1	0.040278131
1	0.050873302
1	0.060408769
2	0.101661584
2	0.080614236
1	0.082044324
1	0.070469609
1	0.080892977
1	0.060559947
1	0.050405842
1	0.05038196
1	0.060655187
2	0.060370946
1	0.050333366
1	0.060296335
1	0.050353762
1	0.060380522
1	0.040263653
1	0.040362634
1	0.050335622
2	0.061171444
1	0.060355161
1	0.050311835
1	0.050333932
1	0.040611463
1	0.05032727
1	0.040271756
1	0.050380154
1	0.040273713
1	0.060426566
1	0.050792623
1	0.050636848
1	0.050306056
1	0.050308094
1	0.060383356
1	0.050319734
1	0.060421174
1	0.050325814
1	0.060375082
2	0.055054216
1	0.040262896
4	0.060403723
1	0.040351352
1	0.050433782
1	0.060563826
1	0.05031001
1	0.051481657
1	0.050431514
1	0.060405124
1	0.040377984
1	0.060406149
1	0.060417537
1	0.05034248
1	0.050319406
1	0.060548347
1	0.060843033
1	0.07045871
1	0.060403138
1	0.042888389
1	0.060419488
1	0.062553085
1	0.050348775
1	0.060459278
1	0.060381563
1	0.051963199
1	0.050520938
1	0.060389528
1	0.050311238
1	0.060665324
1	0.060447628
1	0.060374207
1	0.060370003
1	0.050645751
1	0.040443301
1	0.070619415
1	0.060909636
1	0.051891216
1	0.050258792
1	0.061611954
1	0.050336487
1	0.050736736
1	0.050331205
1	0.060367262
1	0.070443086
1	0.040262712
1	0.063861987
1	0.050344047
1	0.060431266
1	0.060381576
1	0.050391485
1	0.050295153
1	0.050389242
1	0.06043082
1	0.080487973
1	0.085008902
1	0.050330649
1	0.081946039
1	0.066703552
1	0.050328459
1	0.060425923
1	0.060477735
1	0.080505038
1	0.060399215
1	0.07046739
1	0.060423524
1	0.060382671
1	0.060380068
1	0.050330247
1	0.060488583
1	0.070474287
1	0.060366796
1	0.070473445
1	0.08134518
1	0.05033275
1	0.050420155
1	0.050349912
1	0.050480796
1	0.050323312
1	0.050317179
1	0.08072725
1	0.04026081
1	0.060365887
1	0.040265819
1	0.05034026
1	0.050449663
1	0.0503424
1	0.040266089
1	0.060369918
1	0.050328402
1	0.060475547
1	0.040264991
4	0.050995445
4	0.040367366
4	0.060386625
4	0.070471897
1	0.050309335
1	0.060524549
1	0.070490263
1	0.050429523
1	0.060473216
1	0.050365876
1	0.050350095
1	0.050465268
1	0.050362154
1	0.050520773
1	0.050322968
1	0.060405725
1	0.072811879
1	0.040269826
1	0.050327969
1	0.060401693
1	0.060358079
1	0.050317039
1	0.060610988
1	0.050373581
1	0.060605242
1	0.050343059
1	0.060369209
1	0.050342077
1	0.060371543
1	0.060403759
1	0.06042026
1	0.050364156
1	0.060793077
1	0.060347629
1	0.050331907
1	0.051229263
1	0.050887649
1	0.050331873
1	0.060387146
1	0.070547443
1	0.050312929
1	0.051041607
1	0.070828915
1	0.050325129
1	0.050291898
1	0.060417497
1	0.05074761
1	0.04025485
1	0.050334401
1	0.050339219
1	0.060611634
1	0.060396298
1	0.090613012
1	0.104591386
4	0.10275536
4	0.080571511
1	0.080911509
1	0.07045158
1	0.061134722
1	0.040337553
1	0.07044646
1	0.050343851
1	0.050330577
1	0.05033875
4	0.050333857
1	0.040257073
1	0.050357722
1	0.040336381
1	0.060590899
1	0.06045958
1	0.060405616
1	0.05233074
1	0.090673702
1	0.050328117
1	0.05056771
1	0.091276348
1	0.050336165
1	0.050309734
1	0.070517879
1	0.050384857
1	0.100761596
1	0.06166634
1	0.050336759
1	0.050358693
1	0.05032095
1	0.060489744
1	0.050313463
1	0.060726362
1	0.073905692
1	0.050519394
1	0.060435116
2	0.050333262
1	0.050332195
1	0.060413019
1	0.060368382
1	0.060387157
1	0.050384154
1	0.050339868
1	0.050330412
1	0.050360793
1	0.04040237
1	0.050318564
1	0.060393628
1	0.060418073
1	0.050309156
1	0.061812787
1	0.070440914
1	0.05033877
1	0.060418823
1	0.061438802
1	0.060453679
1	0.050333602
1	0.060447142
1	0.06038491
1	0.070432177
1	0.06037696
1	0.071447063
1	0.050331908
1	0.060667815
1	0.040263971
1	0.060421537
1	0.050348477
1	0.05255511
1	0.060507297
1	0.04024898
1	0.050299426
1	0.050572535
1	0.063267221
1	0.061084641
1	0.060747937
1	0.062427207
1	0.05033583
1	0.06049576
1	0.050308636
1	0.060487118
1	0.060412359
1	0.05072138
1	0.060384393
1	0.050610702
1	0.070591308
1	0.060368783
1	0.060393327
1	0.060388667
1	0.060403168
1	0.050323951
1	0.111185505
1	0.106915029
1	0.131382747
1	0.080532949
1	0.060402205
1	0.090637995
1	0.060413002
1	0.070421644
1	0.070811624
1	0.070429391
1	0.053444154
1	0.08051031
1	0.050325286
1	0.060391194
1	0.070709886
1	0.06078867
1	0.061365538
1	0.050382613
1	0.090602415
1	0.070436418
1	0.060376697
1	0.051124828
1	0.070375498
1	0.051539804
1	0.071280205
1	0.07045356
1	0.061321057
1	0.050325527
1	0.070787047
1	0.050647989
1	0.06037707
1	0.060553119
1	0.080821327
1	0.071038335
1	0.070666902
1	0.040549749
1	0.050371124
1	0.060426184
1	0.060584455
1	0.063474838
1	0.050707304
1	0.061430635
1	0.050353319
1	0.070447917
1	0.05029728
1	0.050318788
1	0.070391879
1	0.050343013
1	0.050317763
1	0.050325728
1	0.060743419
1	0.061368325
1	0.070492002
1	0.070493043
1	0.07044851
1	0.060506162
1	0.060390121
1	0.060364174
1	0.060354655
1	0.050348104
1	0.050335675
1	0.060592096
1	0.050510473
1	0.060376001
1	0.050476077
1	0.050347649
1	0.060381778
1	0.05043015
1	0.070503409
1	0.060383543
1	0.06093489
1	0.050406963
1	0.060418715
1	0.060382006
1	0.063668911
1	0.060404817
1	0.050328518
1	0.050425332
1	0.060717978
1	0.070441627
1	0.050280573
1	0.051396888
1	0.07087077
1	0.05042918
1	0.050313368
1	0.051243429
1	0.070506392
1	0.161008648
1	0.075747126
1	0.093721278
1	0.060601973
1	0.060886176
1	0.050665978
1	0.070804378
1	0.050913059
1	0.110894253
1	0.13982746
1	0.114923949
1	0.107174291
1	0.10111252
1	0.082055115
1	0.060663583
1	0.060848098
1	0.081434638
1	0.08054953
1	0.070447046
2	0.060471353
1	0.040268
1	0.060524599
1	0.050373751
1	0.040688758
1	0.062215925
1	0.050476737
1	0.060964647
1	0.052760344
1	0.07049722
1	0.070494211
1	0.050337818
1	0.060389598
1	0.060372141
1	0.070441731
1	0.064420378
1	0.080619771
1	0.060404727
1	0.080649604
1	0.060908775
1	0.060378221
1	0.060668019
1	0.040400614
1	0.050614061
1	0.05034367
2	0.09118294
1	0.074181768
1	0.06038706
1	0.050376531
1	0.060410595
1	0.061002596
1	0.050317711
1	0.050317788
1	0.050349401
1	0.07041978
1	0.040243532
1	0.050349696
1	0.090660168
1	0.050553374
1	0.050324808
1	0.050321873
1	0.060382472
1	0.060367467
1	0.060380579
1	0.050780617
1	0.050389825
1	0.050774249
1	0.050307384
1	0.050319379
1	0.050318118
1	0.040249337
1	0.050330679
2	0.060365632
1	0.050551745
1	0.040958669
1	0.050276568
1	0.040263741
1	0.050655305
1	0.050329002
1	0.050338784
1	0.060666546
1	0.100708651
1	0.070641146
1	0.061072791
1	0.060383483
1	0.050321065
1	0.061985257
1	0.070567213
1	0.050313748
1	0.05074033
1	0.06078007
1	0.060395289
1	0.072514927
1	0.060384955
1	0.05036937
1	0.060384518
1	0.0647288
1	0.064389715
1	0.050380818
1	0.110755994
1	0.080521316
1	0.100888135
1	0.120796429
1	0.070468026
1	0.075607447
1	0.060635506
1	0.070688899
2	0.084735289
1	0.080527513
1	0.060471876
1	0.080977301
1	0.060383672
1	0.059091322
1	0.066414965
1	0.060362338
1	0.050534862
1	0.060402444
1	0.123464099
1	0.060992077
1	0.060523875
1	0.050400916
1	0.0606525
1	0.050335074
1	0.060394345
4	0.083229394
1	0.070969962
1	0.070637024
1	0.060411069
1	0.060385334
1	0.050390138
1	0.050314952
1	0.061816424
1	0.06042285
1	0.070451342
1	0.058817637
1	0.071234898
1	0.060566169
1	0.060380123
1	0.093399928
1	0.050500557
1	0.050351669
1	0.060513363
1	0.062115261
1	0.050571948
1	0.139717356
1	0.111105819
1	0.080519709
1	0.0707131
1	0.076208413
1	0.050320239
1	0.060408147
1	0.063598981
1	0.050323808
1	0.105949041
3	0.070743591
1	0.050523177
1	0.080524634
1	0.062174153
1	0.062473437
1	0.041736095
1	0.050574552
1	0.08059881
1	0.071114768
1	0.060432809
1	0.060402884
1	0.050345215
1	0.061401343
1	0.070459088
1	0.050322045
1	0.060444652
1	0.05035318
1	0.070565596
1	0.070597968
1	0.080988304
1	0.067413805
1	0.060503449
1	0.070885098
1	0.060418166
1	0.071251559
1	0.060411323
1	0.061416916
1	0.060395272
1	0.050828064
1	0.060398582
1	0.050357114
1	0.060593694
1	0.050358041
1	0.060361391
1	0.06335601
1	0.070767351
1	0.060433039
1	0.060371466
1	0.102673017
1	0.090572229
1	0.103905579
1	0.121000049
1	0.100713546
1	0.100798346
1	0.114395528
1	0.092671663
1	0.071091721
1	0.070511142
1	0.075379067
1	0.070958442
1	0.070916242
1	0.070682241
1	0.078088078
1	0.077742458
1	0.050336947
1	0.060400568
1	0.050310415
1	0.06070297
1	0.050332086
1	0.06038451
1	0.050441596
1	0.06039101
1	0.070445314
1	0.050327049
1	0.050308352
1	0.040282465
1	0.06062565
1	0.051070514
1	0.100771687
1	0.060386438
1	0.052566804
1	0.06040641
1	0.050325071
1	0.050305116
1	0.040253414
1	0.082708668
1	0.050353355
1	0.040276704
1	0.040264507
1	0.050325663
1	0.060390823
1	0.040265947
1	0.055160046
1	0.040258904
1	0.071185891
1	0.060391937
1	0.060398591
1	0.060453031
1	0.060377272
1	0.070520246
1	0.054090533
1	0.050329706
1	0.050595378
1	0.060446552
1	0.050312573
1	0.052298204
1	0.050318533
1	0.050644882
1	0.081674035
1	0.061588
1	0.051475268
1	0.060754423
1	0.050895941
1	0.060643676
1	0.050870869
1	0.060383177
1	0.060374173
1	0.081155223
1	0.050555687
1	0.050341323
1	0.060564121
1	0.050317194
1	0.050560997
1	0.050325758
1	0.050336275
1	0.050486361
1	0.070471064
1	0.065802104
1	0.060579714
1	0.09060631
1	0.087287247
1	0.070402378
1	0.060842343
1	0.050402979
1	0.050311079
1	0.050289837
1	0.050317079
1	0.0605239
1	0.050364645
1	0.05173413
1	0.05048228
1	0.040266592
1	0.050321043
1	0.050348194
1	0.05031289
1	0.050321589
1	0.141011815
1	0.070455499
1	0.142974531
1	0.131083854
1	0.12508822
1	0.132067076
1	0.111121585
1	0.112267941
1	0.090646822
1	0.061216769
1	0.070466062
1	0.07045302
1	0.092176739
1	0.094348872
1	0.06061415
1	0.071197097
1	0.06044703
1	0.050317721
1	0.050373824
1	0.06200216
1	0.060773234
1	0.061450185
1	0.050320802
1	0.052966043
1	0.050331343
1	0.062233279
1	0.071228024
1	0.060442709
1	0.060385811
1	0.050351294
1	0.050415858
1	0.060817212
1	0.050333626
1	0.063716376
1	0.08087757
1	0.050429599
1	0.070601091
1	0.05057742
1	0.050322323
1	0.060648143
1	0.0603872
1	0.050353473
1	0.070459939
1	0.060404684
1	0.070729285
1	0.05031955
1	0.060400738
1	0.061473477
1	0.061481706
1	0.063723828
1	0.050521537
1	0.060790676
1	0.060739189
1	0.063609915
1	0.050329455
1	0.090579581
1	0.090535324
1	0.07497697
1	0.075903816
1	0.070514057
1	0.050647725
1	0.06275893
1	0.060657844
1	0.063583958
1	0.060746418
1	0.060384366
1	0.070494893
1	0.050350426
1	0.060419327
1	0.060431978
1	0.080719441
1	0.050429864
1	0.070440105
1	0.060390551
1	0.060419448
1	0.045967136
1	0.0721713
1	0.060520142
1	0.050757346
1	0.050537715
1	0.060665868
1	0.051034227
1	0.060410226
1	0.070441467
1	0.070447558
1	0.07063969
1	0.050316121
1	0.060516874
1	0.060402257
1	0.060390529
1	0.070900417
1	0.040476592
1	0.05251717
1	0.070751127
1	0.060537478
1	0.060388766
1	0.070444023
1	0.080541469
1	0.070401242
1	0.050323798
1	0.05032385
1	0.060396713
1	0.101821027
1	0.1049829
1	0.135010767
1	0.110931584
1	0.14116377
1	0.101215575
1	0.090593073
1	0.101597175
1	0.126080226
1	0.094670094
1	0.095203467
1	0.08321058
1	0.100602683
1	0.08632237
1	0.084405306
1	0.071744507
1	0.080537461
1	0.08089535
1	0.091061599
1	0.091098034
1	0.07113129
1	0.111305223
1	0.081279766
1	0.062127717
