Class	Time (s)
1	0.514056321
1	0.050294562
1	0.050357339
1	0.060400587
1	0.064169014
1	0.052363756
1	0.061538422
1	0.050721975
1	0.050272498
1	0.09176992
1	0.060391184
1	0.060436117
1	0.070482708
1	0.060541963
1	0.061586393
1	0.070758712
1	0.065726803
1	0.071238031
1	0.060409394
1	0.054460892
1	0.050327764
1	0.060447985
1	0.063275762
1	0.07055715
1	0.060396696
1	0.050320473
1	0.060946666
1	0.080702234
1	0.060382495
1	0.07070941
1	0.080494432
1	0.07042781
1	0.060352002
1	0.060387883
1	0.082056115
1	0.060550752
1	0.081029496
1	0.070474652
1	0.050318911
1	0.06065754
1	0.0503438
1	0.060350021
1	0.060374409
1	0.050292963
1	0.091816744
1	0.071593547
1	0.053437767
1	0.090913316
1	0.090631986
1	0.060630671
1	0.061618188
1	0.060843532
1	0.080724361
1	0.070413667
1	0.071436814
1	0.050421809
1	0.061273945
1	0.070466818
1	0.060637958
2	0.060488763
1	0.060425271
1	0.060490485
1	0.050312461
1	0.092600237
1	0.060477332
1	0.070519457
2	0.080612074
2	0.07070161
2	0.040258226
2	0.062776392
2	0.060404938
1	0.040256959
2	0.071925088
2	0.050578351
2	0.062671992
2	0.05083889
2	0.100703909
2	0.0503332
2	0.070459683
2	0.060373754
2	0.050359215
2	0.050483867
2	0.050342176
1	0.040258531
2	0.060421869
2	0.060364994
2	0.050359248
2	0.081155927
2	0.050304843
2	0.050313505
2	0.060381541
2	0.050311405
2	0.050542683
2	0.091005574
2	0.050412971
1	0.050327034
2	0.050310967
1	0.050319301
2	0.040258142
1	0.084035422
1	0.05040382
2	0.070933848
2	0.060402882
2	0.040253055
2	0.061290425
1	0.040287635
2	0.050352811
2	0.060381418
2	0.070455746
1	0.051615847
1	0.05089641
2	0.060373696
2	0.050316036
2	0.050299026
2	0.050377584
2	0.040205944
2	0.050313696
2	0.111113968
2	0.040255306
2	0.070471858
1	0.040255513
2	0.060568172
1	0.050823874
2	0.050321821
1	0.050385658
1	0.050317711
1	0.064224959
1	0.049077005
1	0.041825111
1	0.050307717
1	0.040245416
1	0.090802146
1	0.050307399
1	0.060389135
1	0.050332724
1	0.061007402
1	0.053854537
2	0.060373431
1	0.060372204
1	0.050575437
1	0.050535449
1	0.050811979
3	0.04024917
1	0.060494552
1	0.080582797
3	0.060352165
2	0.060380694
1	0.050269096
1	0.050304141
1	0.05035424
1	0.050314649
1	0.050307407
1	0.040252942
1	0.070414255
1	0.050316985
1	0.06039263
1	0.050322531
1	0.040220173
1	0.055474348
1	0.05034683
1	0.040251736
1	0.06039023
1	0.050316419
1	0.050300938
1	0.050235892
1	0.041132308
1	0.050296288
1	0.050413494
1	0.040244679
1	0.050494655
1	0.050536188
1	0.060402142
1	0.050342527
1	0.050547582
1	0.040685402
1	0.050333818
1	0.051608202
1	0.040495518
1	0.061233793
1	0.04097999
1	0.050574868
1	0.060375652
1	0.060383684
1	0.040290232
1	0.062014195
1	0.040255849
1	0.110801876
1	0.050353919
1	0.040270237
1	0.060384302
1	0.050304226
1	0.070434921
1	0.060463888
1	0.040275316
1	0.100966864
1	0.040261518
1	0.070431961
1	0.051943579
1	0.060379367
1	0.050313699
1	0.040252832
1	0.05059101
1	0.060380408
1	0.040291759
1	0.050351359
1	0.05061837
1	0.084429834
1	0.074068619
1	0.040449118
1	0.050494232
1	0.050340718
1	0.040269958
1	0.05047509
1	0.05034541
1	0.040265746
1	0.050403543
1	0.060404386
1	0.050341874
1	0.050343112
1	0.060415292
1	0.050332436
1	0.05030485
1	0.052019206
1	0.05050497
1	0.050330635
1	0.050343275
1	0.050454555
3	0.060473678
1	0.040595172
1	0.060467137
1	0.061199876
1	0.060387919
3	0.040267589
1	0.070823753
1	0.050329088
1	0.060405619
1	0.061883043
1	0.063019133
1	0.050300155
1	0.06038831
1	0.050292473
1	0.040253898
1	0.05031216
1	0.071239879
1	0.060507382
1	0.050314455
1	0.050358968
1	0.050364403
1	0.060514009
1	0.060417269
1	0.060523678
1	0.06044404
1	0.070442673
1	0.040229832
1	0.040272563
1	0.060448402
1	0.060370694
1	0.050342302
1	0.050318062
1	0.060743159
1	0.050318586
1	0.060396557
1	0.060456672
1	0.05030454
1	0.060438232
1	0.080579398
1	0.070464562
1	0.060692885
1	0.050324169
1	0.060429014
1	0.060403861
1	0.050346158
1	0.060449853
1	0.060322155
1	0.050379898
1	0.05032715
1	0.05033318
1	0.040252032
1	0.060447617
1	0.07049233
1	0.050296446
1	0.060328572
1	0.060430854
1	0.060600493
1	0.050667004
1	0.060468043
1	0.062519441
1	0.050272776
1	0.060979913
1	0.04027134
1	0.060746478
1	0.06036366
1	0.060405009
1	0.050326016
1	0.060393281
1	0.060423889
1	0.050311001
1	0.070496972
1	0.050509073
2	0.05045494
2	0.060372146
2	0.050357939
2	0.050405331
2	0.050334812
2	0.050549849
2	0.051435603
2	0.06037806
2	0.050405887
2	0.064915193
1	0.060322964
2	0.050330227
2	0.050318195
2	0.060371875
1	0.050494861
2	0.060553544
2	0.051323668
2	0.061427476
2	0.050351622
1	0.04023842
1	0.050825472
1	0.040219844
1	0.083940529
1	0.07563606
2	0.07045092
1	0.0603477
1	0.054867052
1	0.050307664
1	0.050536861
2	0.040697073
2	0.052789552
1	0.040272351
1	0.060420059
2	0.050346271
1	0.060349895
1	0.050329948
1	0.050342305
1	0.060370531
1	0.050328931
1	0.050335756
2	0.050340264
2	0.060468732
2	0.101164004
2	0.070452673
1	0.050308877
1	0.050719137
1	0.050367195
1	0.050303421
1	0.06041147
1	0.090877883
1	0.060376819
1	0.050326448
1	0.060340543
1	0.0507367
1	0.060400167
1	0.05035236
1	0.060387904
1	0.050326973
1	0.050370096
1	0.05032586
1	0.050371875
1	0.060402196
1	0.040722954
1	0.051191264
1	0.051137177
1	0.050325059
1	0.060515941
1	0.090660755
2	0.040246169
2	0.05033456
1	0.060677459
1	0.050806476
2	0.050312641
1	0.060445857
1	0.040264542
1	0.080628122
1	0.071342781
1	0.052137646
1	0.050326977
1	0.060376717
1	0.060436902
1	0.050320758
1	0.060521857
1	0.060505688
1	0.050325503
1	0.040356296
1	0.050511697
1	0.040258103
1	0.060684927
2	0.050945233
2	0.050268633
2	0.072009496
2	0.060453554
1	0.042507708
1	0.060346085
1	0.050377112
2	0.050390592
2	0.050329618
2	0.05031582
1	0.040252963
1	0.061084149
1	0.050845776
1	0.050337682
1	0.050973988
1	0.050345565
1	0.050575304
1	0.071024948
1	0.050492378
2	0.050319482
2	0.060362248
2	0.050326322
1	0.050356131
1	0.081091511
1	0.083338889
1	0.070483512
1	0.071114838
1	0.181684338
1	0.085264251
1	0.070517363
1	0.070459896
1	0.050329341
1	0.071897899
1	0.050577781
1	0.051037114
1	0.050327992
1	0.060402197
1	0.040253816
1	0.060870512
1	0.060341131
1	0.040264676
1	0.06040431
1	0.050403482
1	0.050330318
1	0.061034373
1	0.080597662
1	0.06041848
1	0.061090751
2	0.05031861
2	0.060412564
2	0.050379116
2	0.060374239
2	0.050328015
2	0.05043645
1	0.070483174
2	0.0503167
2	0.051374384
2	0.050383627
2	0.050319901
2	0.050567797
2	0.06038119
2	0.040258133
2	0.050309226
2	0.060431107
2	0.050322262
2	0.060506126
2	0.040248947
2	0.050430322
2	0.050327934
2	0.050282154
2	0.050346796
2	0.060389089
2	0.060381235
2	0.042643861
2	0.063446431
2	0.060377833
2	0.050361952
2	0.050354398
2	0.050365898
2	0.05054267
2	0.060371021
2	0.060416217
2	0.060398427
2	0.060401783
2	0.060364333
2	0.050866485
2	0.050445642
2	0.040281895
2	0.082077404
2	0.070487168
2	0.070420708
2	0.04030132
2	0.050300554
2	0.090646314
2	0.05033566
2	0.050353082
2	0.060554028
2	0.060403818
2	0.06037342
2	0.070468945
1	0.086198477
1	0.060365532
2	0.050322989
1	0.05027753
2	0.050331931
1	0.050308331
1	0.054227838
3	0.040246937
1	0.060356523
1	0.040268225
2	0.050325648
1	0.060436379
1	0.050337077
1	0.060668799
1	0.091071802
1	0.060901397
1	0.060492067
1	0.070438855
1	0.060471333
1	0.080894941
1	0.091433876
1	0.07047984
1	0.050333925
2	0.044948638
1	0.050329197
1	0.040342136
1	0.050341326
1	0.060382802
1	0.050292996
1	0.061650991
1	0.070544054
1	0.050312578
1	0.050305896
1	0.051433277
1	0.040249934
1	0.080576169
1	0.050307188
1	0.153174902
1	0.129891444
1	0.115209454
1	0.092263279
1	0.104764346
1	0.071592579
1	0.072685279
1	0.070785828
1	0.070455594
1	0.071840347
1	0.073832997
1	0.060554464
1	0.070433906
1	0.07438453
1	0.080627349
1	0.060381714
1	0.07046838
1	0.073212029
1	0.06067591
1	0.077443886
1	0.080753007
1	0.073730586
1	0.070617466
1	0.090609591
1	0.082761104
1	0.073192471
1	0.070447537
1	0.060377299
1	0.082853927
1	0.060635401
1	0.060398912
1	0.071055154
1	0.07122144
1	0.061099564
1	0.080546553
1	0.070595322
1	0.060393739
1	0.060692165
1	0.082257102
1	0.070552797
1	0.072881556
4	0.066302568
1	0.060383521
1	0.060900609
1	0.051783052
1	0.061969531
1	0.06287923
1	0.071176341
1	0.063595041
1	0.060617413
1	0.070470225
1	0.053812114
1	0.070470021
1	0.070455807
1	0.063118025
1	0.070727408
1	0.070621713
1	0.070461343
1	0.061863925
1	0.070485792
1	0.060581592
1	0.082659727
1	0.060377215
1	0.060624721
1	0.080547571
1	0.072602688
1	0.065460898
1	0.060393793
1	0.08065995
1	0.060333424
1	0.080499674
1	0.070539256
1	0.06040881
1	0.080534005
1	0.074029112
1	0.070457159
1	0.061855257
1	0.060517727
1	0.060579556
1	0.060865698
1	0.070691052
1	0.060398854
1	0.072955659
1	0.056801673
1	0.07071861
1	0.063869018
1	0.060518195
1	0.050437532
1	0.060414228
1	0.070443668
1	0.070485226
1	0.070950591
1	0.060382327
1	0.052331234
1	0.12258581
1	0.080534679
1	0.081060771
1	0.080564442
1	0.060800962
1	0.070589878
1	0.070426801
1	0.060375075
1	0.070856054
1	0.064896611
1	0.081077015
1	0.072021955
1	0.070506579
1	0.081430739
1	0.090604511
1	0.103669565
1	0.095481309
1	0.092675655
1	0.080558028
1	0.091061246
1	0.060499873
1	0.081640069
1	0.055875778
1	0.06388884
1	0.062231628
1	0.06031665
1	0.070625978
1	0.050323976
1	0.060656033
1	0.100937606
1	0.080530366
1	0.050634506
1	0.080527972
1	0.050917594
1	0.07095451
1	0.070482456
1	0.06042624
1	0.070463383
1	0.050318922
1	0.083610943
1	0.080562736
1	0.111188156
1	0.050465073
1	0.060374553
1	0.060646584
1	0.060385663
1	0.054309136
1	0.05032575
1	0.060437992
1	0.060425013
1	0.06040072
1	0.050315176
1	0.050870998
1	0.070467018
1	0.052428178
1	0.060370693
1	0.050321024
1	0.060519585
1	0.050316386
1	0.050313228
1	0.04038177
1	0.060538174
1	0.050321405
1	0.060455024
1	0.050288657
1	0.060470229
1	0.060367198
1	0.06039455
1	0.050410017
1	0.050309062
1	0.050331829
1	0.060657857
1	0.060652369
1	0.064753449
1	0.040252809
1	0.063172988
1	0.050313015
1	0.050314302
1	0.070442632
1	0.040318594
1	0.050873061
1	0.050396056
1	0.060382368
1	0.050322706
1	0.071092318
1	0.04029596
1	0.050324682
1	0.060400936
1	0.050356699
1	0.050309831
1	0.073710072
1	0.050322902
1	0.050758649
1	0.060386398
1	0.060425094
1	0.050330628
2	0.040346742
2	0.060390732
2	0.060417544
2	0.050326802
2	0.070449989
2	0.060819723
2	0.060364852
2	0.050315224
2	0.050332731
2	0.050548806
2	0.060372167
2	0.060861831
2	0.12257948
2	0.115405924
2	0.090703835
1	0.073689498
2	0.060410324
2	0.072259812
2	0.050283705
2	0.06038316
2	0.040362876
2	0.050356588
2	0.050323178
1	0.060365334
2	0.050380444
2	0.060411844
2	0.040241133
1	0.05037764
2	0.040248783
1	0.05033932
1	0.04025564
1	0.050588224
1	0.070422936
2	0.070442691
1	0.050333431
2	0.105732466
2	0.080537294
2	0.060385655
2	0.070581673
2	0.050320388
2	0.060410869
2	0.050451057
1	0.06087308
2	0.050309224
2	0.060522778
2	0.050333584
2	0.050378142
1	0.040319384
2	0.050345681
1	0.050322792
2	0.06042255
1	0.060373013
1	0.050318178
2	0.050341412
1	0.050319996
1	0.061091533
1	0.060416985
1	0.061009547
1	0.062824604
1	0.060838039
1	0.050313469
1	0.061644622
1	0.040258469
1	0.060378207
1	0.040402204
1	0.040401155
1	0.051621054
1	0.050367817
1	0.051390476
1	0.080543562
1	0.060448269
1	0.040322222
1	0.060706557
1	0.050288943
1	0.060380345
1	0.051693187
1	0.050354301
1	0.050323289
1	0.070571978
1	0.060471436
1	0.060361501
1	0.060388641
1	0.0706404
1	0.070546882
1	0.060576734
1	0.05107021
1	0.050353018
1	0.070466319
1	0.063641542
1	0.073571854
1	0.060659991
1	0.050327137
1	0.060441334
1	0.05055418
1	0.050545995
1	0.050421823
1	0.070466692
1	0.050376305
1	0.05060462
1	0.050315868
1	0.05030864
1	0.050789845
1	0.050317092
1	0.050324698
3	0.06056468
1	0.0604192
1	0.051797683
1	0.070447557
1	0.061893861
1	0.054828455
1	0.05135129
1	0.060816954
3	0.071261788
1	0.060416445
1	0.060602851
1	0.171206082
1	0.064271659
1	0.120778671
1	0.100690803
1	0.090638469
1	0.106863847
1	0.090727385
1	0.07585247
3	0.081066785
1	0.063784826
1	0.081054982
1	0.060447262
1	0.070516241
1	0.060475545
1	0.060825245
1	0.053522044
1	0.050349651
1	0.070370229
1	0.050316151
1	0.060396907
1	0.050561612
1	0.05033249
1	0.05031478
1	0.050329869
1	0.071198272
1	0.04024914
1	0.080572372
1	0.040556289
1	0.060681445
1	0.050434558
1	0.050441042
2	0.061157837
2	0.053195385
2	0.05053739
2	0.070474445
2	0.070393594
1	0.060340215
1	0.060406487
2	0.051322813
2	0.060390372
2	0.100749121
2	0.060405197
1	0.060431257
1	0.040294604
2	0.060455919
2	0.052136319
2	0.060478888
2	0.050332983
2	0.050420656
1	0.050323649
2	0.051205198
2	0.040301952
2	0.040251822
2	0.071664366
2	0.050329741
2	0.060511596
2	0.082220878
2	0.064250367
2	0.05030976
2	0.070442902
2	0.060444412
1	0.050626744
2	0.071427477
2	0.050439564
2	0.060478156
1	0.040280714
1	0.050696087
1	0.06041532
2	0.050325806
2	0.05034725
2	0.102468549
2	0.070446678
1	0.073335669
2	0.04025492
2	0.072511404
2	0.050485586
2	0.050339762
2	0.062644745
2	0.05032651
2	0.060639212
2	0.060365138
2	0.060401671
2	0.05140184
2	0.040289716
2	0.050505956
2	0.054890866
2	0.053513432
2	0.05032352
1	0.060939449
1	0.048363333
1	0.060411456
1	0.050595283
2	0.040287988
1	0.070425201
1	0.040284737
1	0.09115314
1	0.090625348
1	0.101122153
1	0.113090008
1	0.101619747
1	0.070751247
1	0.070442753
1	0.060521536
1	0.060406597
1	0.073547539
1	0.06403404
1	0.060471123
1	0.070440759
1	0.060600789
1	0.060412519
1	0.080515992
1	0.060557281
1	0.060513331
1	0.06121654
1	0.100978891
1	0.080969215
1	0.081002643
1	0.072227223
1	0.061638188
1	0.060406836
1	0.07045263
1	0.060496725
1	0.06040451
1	0.050571362
1	0.060419624
1	0.050328705
1	0.060405819
1	0.050887311
1	0.07067096
1	0.060572189
1	0.070481797
1	0.062026574
1	0.070516533
1	0.050315558
1	0.071008236
1	0.070739677
1	0.050317203
1	0.060417457
1	0.06166671
1	0.060953734
1	0.06237954
1	0.050342653
1	0.061144892
1	0.060585765
1	0.060424599
1	0.050332201
1	0.060771037
1	0.06039418
1	0.060609995
1	0.060388238
4	0.050321577
1	0.060599575
1	0.070468935
1	0.064204437
1	0.060346221
1	0.060401612
1	0.061599291
1	0.077493002
1	0.060913374
1	0.050341376
1	0.040348326
1	0.060366697
1	0.040259907
1	0.060563842
1	0.040353511
1	0.040276613
1	0.050343981
1	0.060602392
2	0.040248499
1	0.09073606
1	0.060403364
2	0.062290287
1	0.040740683
1	0.050368137
2	0.05031532
4	0.050336803
2	0.040279069
4	0.100827859
1	0.060387658
1	0.060369565
1	0.050315254
1	0.050307751
1	0.040229489
1	0.080544897
1	0.050298506
1	0.050321831
1	0.063142388
1	0.080696955
1	0.070453121
1	0.05034379
1	0.050339457
1	0.070435156
1	0.050303893
1	0.040282154
1	0.05032468
1	0.040286514
1	0.11688975
1	0.143689006
1	0.13449087
1	0.131167308
1	0.110742142
1	0.110790361
1	0.104076974
1	0.130802606
1	0.102399263
1	0.08262365
1	0.080782025
1	0.060508956
1	0.060437964
1	0.07271859
1	0.080653907
1	0.082222867
1	0.084608197
1	0.080541281
1	0.070899973
1	0.076054714
1	0.060375881
1	0.070723051
1	0.070552591
1	0.060378223
1	0.051217568
1	0.060828236
1	0.060511755
1	0.070499758
1	0.081160503
1	0.09061962
1	0.060389053
1	0.060399929
1	0.060413129
1	0.050346642
1	0.050337128
1	0.0809314
1	0.085775253
1	0.084304602
1	0.070464621
1	0.052691481
1	0.060523982
1	0.060417335
1	0.060489567
1	0.061529143
3	0.07048588
1	0.05031783
1	0.1218622
1	0.093012652
1	0.072484602
1	0.074158097
1	0.082193224
3	0.07091652
1	0.060409528
1	0.071015694
1	0.051874701
1	0.084216553
1	0.08113227
3	0.102330376
1	0.071270804
1	0.060826039
1	0.070441257
1	0.070906955
1	0.060379646
1	0.060760177
1	0.083899964
1	0.060384464
1	0.050354036
1	0.06040858
1	0.060365608
1	0.063783102
1	0.060534265
1	0.050374091
1	0.050316992
1	0.050316953
1	0.050422376
1	0.080657394
1	0.070548605
1	0.071856755
1	0.060662892
1	0.061681065
1	0.050493943
1	0.061034968
1	0.080520556
1	0.060471687
1	0.070472168
1	0.08130557
1	0.091378857
1	0.080538185
1	0.062706873
1	0.06038438
1	0.060365674
1	0.070808702
1	0.070650963
1	0.090722706
1	0.092798397
1	0.071764601
1	0.060407513
1	0.060348438
1	0.050319024
1	0.050365187
1	0.080549546
1	0.070440618
1	0.070479646
1	0.072028247
1	0.083901801
1	0.149649501
1	0.121787314
1	0.193326682
1	0.06447058
1	0.121178844
1	0.104661784
1	0.132079845
1	0.112920852
1	0.151990599
1	0.181666126
1	0.130874748
1	0.086624083
1	0.010062133
