Class	Time (s)
1	0.546091445
1	0.076378213
1	0.066234097
1	0.086160425
1	0.084486152
1	0.078434089
1	0.093156469
1	0.07453401
1	0.075545702
1	0.09074515
1	0.063134356
1	0.073326803
1	0.073815986
1	0.073041748
1	0.052054349
1	0.065249378
1	0.08194641
1	0.060421421
1	0.066314432
1	0.06436014
1	0.060369853
1	0.070579642
1	0.070668567
1	0.061203878
1	0.072026279
1	0.063201523
1	0.050316395
1	0.062622445
1	0.062959847
1	0.060624236
1	0.064540066
1	0.063484697
1	0.065631171
1	0.055179926
1	0.049380796
1	0.065853776
1	0.074705666
1	0.052945633
1	0.05204916
1	0.063008643
1	0.060402149
1	0.060401632
1	0.081223655
1	0.060377121
1	0.0503177
1	0.083045751
1	0.069558774
1	0.075739688
1	0.044784971
1	0.060468257
1	0.065143731
1	0.05032933
1	0.064695537
1	0.085289887
1	0.080516217
1	0.070488811
1	0.060387181
1	0.055174966
1	0.052049985
1	0.060813144
1	0.062634281
1	0.050323767
1	0.060377958
1	0.060399999
4	0.075322855
2	0.076726344
2	0.05160577
1	0.080499481
1	0.065958229
1	0.060890083
1	0.071527275
1	0.064637033
1	0.075622035
2	0.062736731
1	0.062992027
2	0.076492242
1	0.07684371
1	0.077472637
1	0.050653765
1	0.058012696
1	0.065600516
1	0.080807309
1	0.061581092
1	0.050821856
1	0.071543882
1	0.135337679
1	0.06935726
1	0.070666819
1	0.064145613
1	0.070555145
1	0.070760198
1	0.053201846
1	0.053918886
1	0.069318037
1	0.082224338
1	0.075857242
1	0.050326743
1	0.076157384
1	0.055557912
1	0.064259375
1	0.060405096
1	0.06384505
1	0.072749743
1	0.060425067
1	0.05204109
1	0.064462657
2	0.075999527
2	0.061292233
2	0.050276676
2	0.061233303
1	0.045275699
2	0.120653941
1	0.063161174
1	0.060583836
1	0.064180598
1	0.046256667
1	0.050340587
1	0.050397612
1	0.05031927
1	0.05034038
1	0.05039714
1	0.081426747
1	0.050314202
1	0.040250468
1	0.060416599
1	0.064526383
1	0.050519191
3	0.040250588
1	0.060459628
3	0.050312387
1	0.050365941
1	0.051207991
3	0.060534679
1	0.050514399
1	0.060395176
1	0.075794754
1	0.062233598
1	0.060372618
1	0.040257662
1	0.08479571
3	0.040238607
1	0.060372603
3	0.050979771
3	0.060382805
3	0.071707005
3	0.060680648
1	0.045698926
3	0.042925136
1	0.067770916
3	0.055579366
3	0.05410226
1	0.062394107
1	0.060385015
3	0.050681675
1	0.051562767
1	0.050314751
1	0.051032284
1	0.050346784
1	0.050449785
1	0.063189193
1	0.051514118
1	0.060407358
1	0.060387025
1	0.060407738
1	0.04029883
3	0.060715311
1	0.052887674
1	0.09701154
3	0.062593009
1	0.060976369
1	0.050332381
3	0.050505753
1	0.050590992
3	0.053888074
1	0.06037173
1	0.043712151
1	0.060360251
1	0.051023111
1	0.050308746
1	0.050537456
1	0.060369392
1	0.050365827
1	0.060358659
1	0.050336323
1	0.050384258
1	0.070452519
1	0.040250974
3	0.061399386
3	0.054460876
1	0.060430963
1	0.053912793
1	0.050406679
1	0.043845031
3	0.041452996
3	0.062093916
1	0.050273303
3	0.060376701
3	0.040289843
1	0.073525389
3	0.050280241
3	0.040264746
3	0.064833731
3	0.040426276
3	0.070464887
3	0.040254399
3	0.053678483
3	0.051902719
3	0.075928804
3	0.053513353
3	0.065452997
3	0.052760006
3	0.035887683
3	0.053563374
3	0.052436333
3	0.040254861
3	0.080726964
3	0.060400256
3	0.050338632
3	0.06038321
3	0.054148372
3	0.05428223
3	0.050846855
3	0.050325422
1	0.050318834
1	0.044344581
1	0.08051808
1	0.060354936
1	0.051352708
1	0.06088566
1	0.047839373
1	0.060397931
1	0.050326416
1	0.070417588
1	0.050352146
1	0.050324474
1	0.052343969
1	0.054411624
1	0.060765254
1	0.070443735
1	0.044472724
1	0.055530603
1	0.101626938
1	0.050318513
1	0.075768336
1	0.050295631
1	0.054060004
3	0.053726883
1	0.060450858
3	0.050424954
3	0.060633089
3	0.054706722
3	0.052450256
1	0.054264519
3	0.050907366
3	0.045821222
1	0.050312425
3	0.060378284
3	0.060398751
3	0.050324202
3	0.050324132
3	0.061386812
1	0.073289559
1	0.052769823
1	0.04522489
1	0.056050321
3	0.075436279
3	0.054334181
3	0.082789874
1	0.050312185
3	0.060556198
1	0.060334642
1	0.065973746
3	0.060375979
3	0.050340054
1	0.04105614
1	0.055349921
1	0.060408394
1	0.05389046
1	0.060423296
1	0.055398591
1	0.055200895
1	0.060448673
1	0.040553337
1	0.050310743
1	0.050353471
1	0.060394883
1	0.114875565
1	0.071925336
1	0.073287948
1	0.087226101
1	0.060735298
1	0.053314523
3	0.072316736
1	0.050313233
1	0.060613133
1	0.040286142
1	0.057618367
1	0.065587214
1	0.06522694
1	0.045180507
1	0.044760496
1	0.070525238
1	0.063782637
1	0.063254795
1	0.050556181
1	0.06052238
1	0.074233196
1	0.050332888
1	0.050328287
1	0.060813724
1	0.060406733
1	0.052770785
1	0.052725769
1	0.040251361
1	0.050321925
1	0.052738522
1	0.060389551
1	0.043599099
1	0.050355878
1	0.040256749
1	0.060411505
1	0.06063902
1	0.063777228
1	0.050349304
1	0.050328239
1	0.050339662
1	0.040269104
1	0.066043223
1	0.074762646
1	0.050542631
1	0.060371168
1	0.046033053
1	0.053980352
1	0.052663146
1	0.060377577
1	0.05028768
1	0.050322452
1	0.060383042
1	0.054490004
1	0.060425366
1	0.085989924
1	0.04366177
1	0.050318168
1	0.040298567
1	0.060397452
1	0.070905401
1	0.050629273
1	0.050315634
1	0.05252576
1	0.07992425
1	0.053712024
1	0.080631138
1	0.072283183
1	0.054514536
1	0.065451426
1	0.063973066
1	0.053611387
1	0.063673953
1	0.070794398
1	0.060352001
1	0.060400486
1	0.06398454
1	0.060379223
1	0.050311001
1	0.061977694
1	0.071664932
1	0.050333765
1	0.060378321
1	0.060995704
1	0.093386717
1	0.174778242
1	0.064267971
1	0.07506248
1	0.070520523
1	0.050342807
1	0.063078803
1	0.060389869
1	0.051174709
1	0.070545256
1	0.055771321
1	0.051825825
1	0.051311047
1	0.062573291
1	0.064487959
1	0.041333645
1	0.050374831
1	0.050774824
1	0.060883758
1	0.060548076
1	0.060375907
1	0.055566487
1	0.050320551
1	0.050506818
1	0.060577464
1	0.050305388
1	0.050271407
1	0.080534703
1	0.09315471
1	0.070634735
1	0.052487082
1	0.060376661
1	0.070442946
1	0.054485689
1	0.053296088
1	0.054183474
1	0.081547861
1	0.055243812
1	0.060389494
1	0.074231365
1	0.063940964
2	0.050346402
1	0.050698881
1	0.044245519
1	0.053342875
1	0.122871033
1	0.060407719
1	0.060399846
1	0.051198463
1	0.044854636
1	0.046545969
1	0.052634759
1	0.055327822
1	0.050326615
1	0.050325987
1	0.077156516
1	0.070885185
1	0.060369755
1	0.050412384
1	0.050402242
1	0.060384683
1	0.042646352
1	0.060411772
1	0.134007154
1	0.060348615
1	0.060841317
1	0.045347358
1	0.060409073
1	0.040266786
1	0.046319576
1	0.050316411
1	0.050733399
1	0.056671723
1	0.07043605
1	0.040605532
1	0.060413344
1	0.050381645
1	0.050750239
1	0.061442167
1	0.040269202
1	0.060719419
1	0.060385806
1	0.064433714
1	0.051065977
1	0.060695024
1	0.050340912
1	0.064461642
1	0.070444731
1	0.050470948
1	0.067310927
1	0.124370405
1	0.075441041
1	0.073113548
1	0.065059071
1	0.061940474
1	0.060677016
1	0.060670394
1	0.07060759
1	0.05565702
1	0.080539274
1	0.056074597
1	0.055935132
1	0.055664321
1	0.060361498
1	0.071737473
1	0.060974399
1	0.060487356
1	0.060396025
1	0.072468685
1	0.06467667
1	0.060577457
1	0.065992047
1	0.062973681
1	0.063807434
1	0.055279403
1	0.06162583
1	0.06044523
1	0.070453898
1	0.06039469
1	0.060665746
1	0.060389673
1	0.050320853
1	0.070484183
1	0.062143001
1	0.050332097
1	0.060558247
1	0.070692841
1	0.07950558
1	0.040534873
1	0.072190802
1	0.065983512
1	0.060392067
1	0.073931118
1	0.061163558
1	0.050329106
1	0.070443482
1	0.05368431
1	0.060631684
1	0.065472712
1	0.06289392
1	0.055303691
1	0.060392774
2	0.05145597
1	0.064590361
1	0.065679547
1	0.052069792
1	0.050298378
1	0.06520115
2	0.055486048
2	0.060489334
1	0.040296771
2	0.065213771
1	0.040253528
1	0.080556515
1	0.060410211
1	0.070432492
4	0.054243884
4	0.070470517
4	0.04042215
1	0.048480325
1	0.070484422
1	0.054160745
1	0.063068247
3	0.06190337
1	0.063700524
3	0.044074419
1	0.050536419
1	0.05031348
1	0.060658922
1	0.050326919
1	0.055401329
1	0.060599303
1	0.071510639
1	0.054535735
1	0.060369215
1	0.050376125
1	0.050382842
1	0.040252763
1	0.054426973
1	0.044711154
1	0.060823257
1	0.046069071
1	0.07419433
1	0.096887571
1	0.113396975
1	0.124144476
1	0.09684854
1	0.074669964
1	0.065461662
1	0.084659623
1	0.070833357
1	0.071971287
1	0.061234891
1	0.055736167
1	0.050501337
1	0.050364547
3	0.060384926
1	0.065956731
1	0.072337078
4	0.055024017
1	0.040799375
1	0.083652653
1	0.060510304
1	0.050333645
1	0.071942428
1	0.060866439
1	0.055623205
1	0.060723462
1	0.065231671
1	0.052912226
1	0.050329815
1	0.054060127
1	0.046395035
1	0.06590654
1	0.05032204
1	0.05036196
1	0.058855623
1	0.050343754
1	0.06037066
1	0.080550924
1	0.05574369
1	0.061256375
1	0.062650952
1	0.053964774
1	0.05223044
1	0.062689135
1	0.074381806
1	0.050322766
1	0.060389196
1	0.042903035
1	0.050355865
1	0.041987006
1	0.045969401
1	0.070877544
1	0.061172306
1	0.080627847
1	0.070477463
1	0.060389096
1	0.061715376
1	0.040313542
1	0.054700916
1	0.063553715
4	0.050413149
1	0.074030374
1	0.052670264
1	0.0629047
1	0.086900463
1	0.055532113
1	0.074037605
1	0.05030839
1	0.05073679
1	0.060366136
1	0.050334221
1	0.05229342
1	0.060401296
1	0.075105056
1	0.054614086
1	0.060380934
1	0.055683926
1	0.053037271
1	0.053098804
1	0.051280686
1	0.062156279
1	0.052868573
1	0.062019911
1	0.061958171
1	0.055249941
1	0.062628964
1	0.053258523
1	0.054831637
1	0.075393961
1	0.060393276
1	0.050359683
1	0.050335347
1	0.06294235
1	0.070594521
1	0.045653559
1	0.070535005
1	0.056336018
1	0.069900949
1	0.060401349
1	0.050714729
1	0.050492075
1	0.055830956
1	0.044837919
1	0.050411988
1	0.058397576
1	0.074529853
1	0.163969844
1	0.120980534
1	0.120117266
1	0.0905925
1	0.086117551
1	0.082929019
1	0.074746853
1	0.092325782
1	0.07339433
1	0.066066346
1	0.070452094
1	0.080795829
1	0.054093825
1	0.085143519
1	0.06270558
1	0.082238751
1	0.076584126
1	0.095162771
1	0.087909935
1	0.064011803
1	0.061064861
1	0.121648572
1	0.079550326
1	0.084841176
1	0.06039491
1	0.084822785
1	0.077290604
1	0.080533106
1	0.055328721
1	0.063618116
1	0.056198964
1	0.073292105
1	0.071593138
1	0.088746853
1	0.0604002
1	0.074704231
1	0.094779592
1	0.074271813
1	0.063371118
1	0.105050054
1	0.106212467
1	0.065069364
1	0.056952573
1	0.087846756
1	0.060709686
1	0.078388063
1	0.078308497
1	0.08078266
1	0.051025632
1	0.060357343
1	0.060401865
1	0.083452766
1	0.092763798
1	0.060421296
1	0.094029609
1	0.063743014
1	0.075288205
1	0.054089351
1	0.070425538
1	0.072680135
1	0.073111879
1	0.072278944
1	0.060419054
1	0.100670693
1	0.065905082
1	0.070757506
1	0.076321422
1	0.060695657
1	0.066501634
1	0.084354715
1	0.066120316
4	0.051247961
1	0.080690091
1	0.070036706
1	0.083702018
1	0.063266153
1	0.070415485
1	0.102701613
1	0.050335472
1	0.050317105
1	0.060461481
1	0.07044294
1	0.050894672
1	0.072967356
1	0.084062482
1	0.043985456
1	0.056012044
2	0.054111764
2	0.050370243
4	0.053834067
1	0.102544085
4	0.063071695
4	0.054402369
4	0.090677743
4	0.08068156
2	0.122549166
2	0.131350444
1	0.090589744
4	0.093329668
4	0.112758797
4	0.090981673
4	0.073717258
4	0.075473421
4	0.060566322
4	0.06037384
4	0.091172027
1	0.064388087
4	0.050324068
4	0.075594726
1	0.063531747
1	0.06789122
1	0.054643376
1	0.080757984
1	0.089842632
1	0.066551688
1	0.066973736
1	0.070980826
1	0.080803883
1	0.071454353
1	0.086123223
1	0.051427264
1	0.060390406
4	0.075592477
1	0.051376664
1	0.060412818
1	0.060378103
1	0.080573769
1	0.07081241
1	0.0820401
1	0.071280938
1	0.050310573
1	0.060411393
1	0.060378939
1	0.070926332
1	0.060966893
1	0.080540747
1	0.066644267
1	0.06052475
1	0.053592239
1	0.050399058
3	0.0402479
1	0.066609273
1	0.050985836
1	0.054661078
1	0.062110997
1	0.050359235
1	0.050297042
1	0.06036733
1	0.050427434
1	0.091770632
1	0.057173981
1	0.060404431
1	0.063317465
1	0.081098193
1	0.07048929
1	0.040955257
1	0.054116106
4	0.053199469
1	0.051371175
4	0.064267937
1	0.053896845
1	0.060412797
1	0.08314611
1	0.067928775
1	0.0522622
1	0.040274264
1	0.080590845
1	0.050478185
1	0.053760591
4	0.040269326
4	0.043524688
1	0.066989293
1	0.182618946
1	0.06334802
1	0.070466856
1	0.061512083
1	0.050310686
1	0.065429513
1	0.050311539
1	0.060398242
1	0.050314452
1	0.060633034
2	0.050323575
1	0.050320117
1	0.052964673
1	0.139751535
1	0.139250127
1	0.089942466
1	0.123530253
1	0.10432061
1	0.123847212
1	0.080887544
1	0.104299425
1	0.106633942
1	0.100643028
1	0.10070793
2	0.086526504
1	0.062843429
1	0.060460882
1	0.094384986
1	0.071757982
2	0.073340025
1	0.072065612
1	0.065335155
1	0.077226083
1	0.07072673
1	0.062971102
1	0.101851973
1	0.072466186
1	0.062499845
1	0.085883806
1	0.04086239
1	0.060392752
1	0.060388701
1	0.085293246
1	0.080703555
1	0.070470675
2	0.070593818
2	0.06771515
1	0.052397325
2	0.0614259
1	0.062580922
2	0.066810983
1	0.081128709
1	0.065846121
1	0.055364182
1	0.083168578
1	0.084648523
1	0.153664989
1	0.064850129
1	0.066380231
1	0.070886511
1	0.079050229
1	0.060392502
1	0.067755974
1	0.072459098
1	0.089260206
1	0.083288347
1	0.050420095
1	0.074267798
1	0.080611546
1	0.07045197
1	0.063231432
1	0.095519808
1	0.084431899
1	0.057683469
1	0.07604903
1	0.060395697
1	0.075964698
1	0.055303421
1	0.076202691
1	0.064602784
1	0.060396387
1	0.07109538
1	0.060383476
1	0.073657261
1	0.052704315
1	0.067598856
1	0.094879236
1	0.08133339
1	0.060395552
1	0.080966375
1	0.085053222
1	0.065746781
1	0.075464854
1	0.06234073
1	0.073021904
1	0.06470615
1	0.060743517
1	0.0658748
1	0.060667268
1	0.084532493
1	0.074467863
1	0.054222227
1	0.063810484
1	0.053378418
1	0.060398932
1	0.125497772
1	0.138870209
1	0.091063743
1	0.119898291
1	0.119460762
1	0.124037361
1	0.098713526
1	0.107240527
1	0.083965871
1	0.103784219
1	0.112791403
1	0.104098333
1	0.080966236
1	0.097371134
1	0.060482513
1	0.053350765
1	0.082936564
1	0.07047314
1	0.09422192
1	0.062357982
1	0.070395372
1	0.105297714
1	0.09802379
1	0.070878848
1	0.077475888
1	0.066630851
1	0.06095322
1	0.07047909
1	0.060573913
1	0.07109907
1	0.070656779
1	0.070472374
1	0.070526978
1	0.08299038
1	0.067838439
1	0.060385286
1	0.060901021
1	0.070466775
1	0.076282338
1	0.116167247
1	0.09584724
1	0.06034776
1	0.100551845
1	0.06072147
1	0.082658827
1	0.065348744
1	0.086779655
1	0.076157146
1	0.080408336
1	0.072667937
1	0.070670458
1	0.060401347
1	0.078149836
1	0.082029639
1	0.081207574
1	0.080508019
1	0.065157604
1	0.074485926
1	0.070478528
1	0.074794809
1	0.063338014
1	0.065729559
1	0.100790061
1	0.100743044
1	0.030221488
