Class	Time (s)
2	0.540194418
1	0.052295216
1	0.052232714
1	0.067298124
2	0.076906135
2	0.074048808
2	0.07431161
2	0.050633856
2	0.069092016
1	0.060410976
1	0.060598953
1	0.112163463
1	0.073090741
1	0.084974891
1	0.064203759
1	0.082861767
1	0.05031804
2	0.064452183
2	0.050311119
1	0.050347457
1	0.109579648
2	0.07007691
1	0.06244944
2	0.054621712
1	0.050384057
2	0.064188397
2	0.040679803
1	0.060360705
2	0.073754789
2	0.050335266
2	0.07038377
2	0.07782075
2	0.040269435
2	0.040258456
1	0.050355305
2	0.071825455
1	0.077297522
1	0.071266098
1	0.063470233
1	0.075116336
2	0.064425569
2	0.050442018
1	0.050289483
1	0.065664426
2	0.075377779
1	0.070420777
1	0.055484795
1	0.055277939
2	0.065370679
2	0.073075162
1	0.050813292
1	0.050754501
1	0.064903543
1	0.064413708
2	0.080802477
2	0.11449098
1	0.0604053
1	0.063131337
1	0.060411296
2	0.070625281
1	0.040256172
1	0.05343294
1	0.055823093
2	0.082144595
2	0.082698599
2	0.047881201
1	0.050322289
1	0.070718622
1	0.060445369
2	0.072180176
1	0.050272941
2	0.063382388
1	0.070487925
1	0.07303089
2	0.060458077
2	0.070837122
2	0.060422476
1	0.060406376
1	0.059997454
1	0.070446933
1	0.051029951
1	0.071306905
1	0.100763405
1	0.060382578
1	0.075047614
2	0.060414034
1	0.060976784
1	0.050314797
2	0.070472463
2	0.050322886
2	0.062847506
1	0.051218904
2	0.056786306
2	0.06053439
1	0.061769774
1	0.070616244
2	0.0903786
1	0.050563483
2	0.11383075
1	0.070689613
2	0.070452575
1	0.054771306
1	0.067203535
1	0.064057198
1	0.080574518
2	0.070509885
1	0.042350148
1	0.070164849
1	0.080953181
2	0.06752385
1	0.050327288
1	0.078165639
1	0.071712237
2	0.096011019
2	0.071154783
2	0.050461955
2	0.043418573
1	0.070817738
2	0.050316567
1	0.067124021
1	0.090962372
1	0.050327541
1	0.050311038
1	0.060414924
1	0.070434708
1	0.0503274
1	0.070460353
1	0.044682696
1	0.050311488
1	0.050333816
1	0.050363895
1	0.043743871
1	0.055902513
1	0.040245062
1	0.053005436
1	0.050630914
1	0.050334564
1	0.051852527
1	0.05030791
1	0.055087481
2	0.050356069
1	0.051213194
1	0.040257139
2	0.061194498
1	0.073950947
1	0.060392756
1	0.045713134
1	0.053419506
1	0.060379386
1	0.063808336
3	0.060495129
1	0.050562784
1	0.05092337
1	0.064591107
1	0.053635433
1	0.043867045
3	0.053459824
1	0.070458654
1	0.054797307
1	0.056148307
1	0.050310215
1	0.040272656
1	0.05032354
1	0.050338534
1	0.050357099
1	0.065059355
1	0.060395015
1	0.050316043
3	0.050476879
3	0.041411603
3	0.061622355
3	0.064658572
1	0.060357641
3	0.041562001
3	0.040257418
3	0.050351484
3	0.060366875
3	0.05034835
3	0.060569043
3	0.070812018
3	0.070464351
3	0.070540947
1	0.050452638
3	0.050280417
1	0.05032598
1	0.066178988
1	0.053733531
3	0.063243251
3	0.070886205
1	0.060377496
1	0.046176454
1	0.060387513
1	0.05031149
1	0.070468949
1	0.053634548
1	0.051858522
1	0.040256249
1	0.062467499
1	0.070449367
1	0.060382984
1	0.04619607
1	0.050306703
1	0.075163056
1	0.056395624
1	0.080585623
1	0.040257682
1	0.065412251
1	0.080585254
1	0.060394532
1	0.060591743
1	0.050426281
1	0.061202686
1	0.052852591
1	0.060417429
1	0.050352208
1	0.050482591
1	0.050364817
1	0.050304894
1	0.05522898
1	0.060570785
1	0.04026265
1	0.050337003
1	0.060353732
1	0.04026653
1	0.060480999
2	0.070624696
1	0.050314796
1	0.070537983
1	0.050497363
1	0.05034604
1	0.050354086
1	0.050479914
1	0.060651638
1	0.054170071
1	0.104608184
2	0.060483022
1	0.049834146
1	0.075331409
1	0.107939979
1	0.050320162
1	0.060496307
1	0.053289426
1	0.073496986
1	0.063235438
1	0.072338363
1	0.060405349
1	0.060378975
1	0.071116934
1	0.066059919
3	0.060402228
3	0.053886055
3	0.050364206
3	0.060528642
1	0.050735847
3	0.060374544
3	0.055761855
3	0.050347676
3	0.056100263
3	0.050321379
3	0.045222089
3	0.053930946
3	0.070463058
3	0.060491898
3	0.060545855
3	0.04026049
3	0.040258414
1	0.050325306
1	0.050383019
1	0.050310389
3	0.070469647
3	0.060377068
1	0.05089592
1	0.050342972
3	0.051821008
3	0.07299173
3	0.053316161
3	0.053749941
3	0.05209696
3	0.081067149
3	0.060406454
1	0.050323535
1	0.050329606
1	0.040501723
1	0.070445702
1	0.060662221
1	0.062042735
1	0.065830795
1	0.074348352
3	0.070465306
1	0.060493211
1	0.050312241
1	0.070472251
1	0.070415203
1	0.050478167
1	0.050614226
1	0.064324877
1	0.040275655
1	0.070516541
1	0.05034734
1	0.050347647
1	0.060565906
3	0.060419539
1	0.043992521
1	0.065587743
1	0.050309683
1	0.067651135
1	0.08435231
1	0.05322815
1	0.044994516
1	0.051262055
3	0.050527362
3	0.055180471
3	0.080569276
1	0.060378794
1	0.065925638
1	0.062235976
3	0.065169108
3	0.051964398
1	0.055450696
1	0.07052915
1	0.091996785
1	0.060492253
1	0.053958985
1	0.06050708
3	0.063123176
1	0.0503209
1	0.064167273
3	0.052261126
1	0.052950714
3	0.064596217
1	0.061402899
1	0.060488189
1	0.060970562
1	0.075850748
1	0.057795583
1	0.060307887
1	0.051380981
1	0.040262229
1	0.050268269
1	0.060363888
1	0.060454633
1	0.070469002
1	0.060865637
1	0.050289806
1	0.060361042
1	0.050981023
3	0.050411786
3	0.040248082
1	0.050424413
1	0.050356615
3	0.060458053
1	0.060390457
1	0.050327442
1	0.050319287
3	0.05601191
1	0.050687253
1	0.056092624
1	0.050656847
1	0.050339258
1	0.063476371
3	0.074656439
3	0.060434453
3	0.053291787
3	0.063972896
1	0.060417415
1	0.040264798
1	0.072831194
1	0.054094273
1	0.060442475
3	0.070426748
3	0.060388091
3	0.060803698
1	0.063392642
3	0.050330922
3	0.053208362
1	0.063113823
1	0.053765497
1	0.073537644
1	0.064755252
1	0.050585883
3	0.073925397
1	0.063933646
1	0.060408237
1	0.050345948
1	0.050276451
3	0.062518639
3	0.053984729
3	0.064055653
1	0.050402025
1	0.050520382
1	0.060852435
1	0.060518418
1	0.048019302
1	0.060390523
1	0.050326981
1	0.060403803
1	0.062201027
1	0.060787637
3	0.050319505
3	0.0403142
3	0.051348338
1	0.066121528
4	0.040278955
3	0.06368242
3	0.102848055
3	0.063114232
3	0.055022515
1	0.060400531
1	0.060374105
1	0.064869822
1	0.052975004
1	0.075369346
1	0.050638419
1	0.060398504
1	0.060646432
1	0.171797146
1	0.05154308
1	0.057239592
1	0.06064881
1	0.046631167
1	0.055428894
1	0.055189909
1	0.066916176
1	0.050324225
1	0.063885032
1	0.044956141
1	0.050356624
1	0.060370093
4	0.050851132
1	0.05726799
1	0.051102772
1	0.059646953
1	0.050322754
1	0.060528678
1	0.054027736
1	0.06040334
1	0.043202663
1	0.050319822
1	0.060392395
1	0.050320524
1	0.060385034
1	0.051825062
1	0.060349069
1	0.040574737
1	0.056710704
1	0.062133192
2	0.050277565
1	0.069675136
1	0.050723961
1	0.070470775
1	0.062408127
1	0.050327204
1	0.061999413
1	0.040271158
1	0.062943478
1	0.04362628
1	0.062218851
1	0.045428999
1	0.051108262
1	0.060425148
1	0.082209707
1	0.050410458
1	0.060453513
1	0.050305271
1	0.06037957
1	0.050325096
1	0.060402121
4	0.050326771
1	0.060767587
1	0.060444067
2	0.050244881
1	0.060410324
1	0.054512769
2	0.044307738
1	0.051027053
2	0.050429389
2	0.06689627
2	0.060422865
2	0.064691043
1	0.064451442
1	0.060394487
1	0.050273873
2	0.054758009
1	0.050334506
1	0.11303299
1	0.074770845
1	0.0631486
1	0.080864647
1	0.076103146
1	0.070964626
2	0.060846221
1	0.060423925
1	0.06116707
1	0.050328261
1	0.064166197
1	0.052315073
1	0.083252107
1	0.060933919
3	0.071586579
1	0.052711192
1	0.040300866
1	0.063705997
1	0.051922363
3	0.061019113
3	0.064088206
1	0.073193572
1	0.065079266
1	0.060815402
1	0.061779962
1	0.060436031
3	0.063108254
1	0.065831624
3	0.050320906
3	0.044866983
3	0.063640302
3	0.050336676
3	0.062614806
3	0.050336452
1	0.050339795
3	0.050386041
3	0.050468133
3	0.080796446
3	0.065667471
3	0.06621855
3	0.061894551
3	0.062597603
1	0.061318406
1	0.055244014
1	0.050596931
1	0.060451862
1	0.053933296
1	0.06476835
1	0.066261458
1	0.060544559
1	0.062144999
1	0.041218163
1	0.055468684
1	0.062607755
1	0.060447389
1	0.070459556
1	0.060387898
1	0.085256295
1	0.053049258
1	0.0626642
1	0.060355185
1	0.054601895
1	0.050309132
1	0.060523301
1	0.056940818
1	0.050348565
1	0.113159227
1	0.063978238
1	0.062138901
1	0.066395183
1	0.05032862
1	0.060375647
1	0.065110542
1	0.050320411
1	0.030171038
1	0.06651742
1	0.055906296
1	0.060332267
1	0.05031185
1	0.070459845
1	0.050316145
1	0.060369768
1	0.050344821
1	0.050318111
1	0.070719247
1	0.061107818
1	0.060777708
1	0.050730971
1	0.050395746
1	0.051927196
1	0.10660243
1	0.094607723
1	0.099176406
1	0.12101056
1	0.080672611
1	0.077483802
1	0.07538626
1	0.083217876
1	0.075425818
1	0.060417068
1	0.050440488
2	0.043906099
1	0.072883096
1	0.04135933
1	0.072079393
1	0.064401806
1	0.066484069
1	0.070493812
1	0.050325621
1	0.060494809
1	0.060383836
1	0.07666819
1	0.050597041
1	0.070853673
1	0.050322554
1	0.055940568
1	0.053227495
1	0.050309714
1	0.050320422
1	0.050350612
1	0.061399246
1	0.050308769
1	0.057076401
1	0.050586296
1	0.060397347
1	0.054432518
1	0.063490484
3	0.062856441
3	0.086721299
3	0.10158958
1	0.07093074
1	0.073969545
3	0.050623194
3	0.060916084
3	0.061478982
3	0.063257304
3	0.050316206
3	0.052953631
3	0.052183731
1	0.060453019
1	0.060417199
1	0.050347948
1	0.071734841
1	0.060405506
3	0.050483027
1	0.062473543
3	0.063268566
3	0.054241324
1	0.056210821
3	0.060858395
1	0.040261353
1	0.061890915
1	0.050320426
1	0.062854887
1	0.054850175
3	0.054168226
3	0.066267396
3	0.100962029
3	0.060531097
3	0.054194355
3	0.051803048
3	0.045649372
3	0.055635994
3	0.051375039
1	0.050726563
1	0.060461872
1	0.050240807
1	0.060443907
3	0.050573876
3	0.070528741
3	0.050321622
1	0.051784391
3	0.054107956
3	0.050340806
3	0.072291694
3	0.055136847
1	0.060386732
1	0.05031053
1	0.040265171
1	0.060378712
1	0.060417756
1	0.054358259
1	0.05030943
1	0.10283741
1	0.11153186
1	0.089457563
1	0.06049273
1	0.069200975
1	0.060384735
1	0.074803801
1	0.050348447
1	0.060431463
1	0.090790187
1	0.064811892
1	0.061036011
1	0.060376611
1	0.063835067
1	0.065584305
1	0.064371198
1	0.060351283
1	0.055841868
1	0.071991481
1	0.050327395
1	0.091024005
1	0.070495957
1	0.073352203
1	0.070452489
1	0.075993383
1	0.043973188
1	0.063492604
1	0.060382908
1	0.060611763
1	0.061492171
1	0.060426645
1	0.080602346
3	0.070454359
1	0.060411882
1	0.07068309
1	0.061320807
1	0.078470997
1	0.066578431
3	0.090686487
3	0.070475821
3	0.063282471
3	0.043194603
3	0.061740908
3	0.044299966
3	0.060400809
3	0.080463474
3	0.050362667
3	0.050305271
3	0.050323664
3	0.050338562
3	0.060394936
3	0.062284526
3	0.071880069
3	0.060548329
3	0.06038296
3	0.051624875
3	0.054091119
3	0.051982707
3	0.051310838
3	0.090615585
3	0.057040363
1	0.040249881
1	0.045292668
1	0.070438868
1	0.068490365
3	0.060333057
1	0.06385795
1	0.070470647
1	0.05539328
1	0.071583209
1	0.051709222
1	0.083229148
3	0.080527053
3	0.061184734
1	0.060820752
1	0.050390119
1	0.070572343
1	0.050349415
1	0.05559966
1	0.051723388
1	0.065083375
1	0.091005785
1	0.05260335
1	0.060466516
1	0.060379502
1	0.060380809
1	0.063541192
1	0.06044733
1	0.060388785
1	0.060802118
1	0.062964536
4	0.05037989
4	0.053765804
4	0.060597383
4	0.050444496
4	0.050319711
2	0.060389055
2	0.040252482
2	0.100865678
1	0.050257822
1	0.050317254
1	0.050426987
1	0.063409643
1	0.053159968
2	0.060398367
1	0.127436214
2	0.064889055
1	0.119731167
1	0.124643916
2	0.104964955
1	0.126872608
1	0.108240284
2	0.074621334
2	0.045338815
1	0.050321497
1	0.060611379
1	0.050451059
2	0.064473645
1	0.052918169
1	0.066578639
1	0.052584476
2	0.050371414
1	0.05039039
1	0.055386725
1	0.042557751
1	0.050418253
2	0.070484621
1	0.050343606
1	0.060354908
1	0.050339258
1	0.050503326
1	0.061143805
1	0.073682332
2	0.045269818
1	0.05565733
2	0.064583735
2	0.04273934
2	0.050373413
2	0.074971754
2	0.044746555
1	0.050586272
1	0.051888304
1	0.040254482
2	0.050295504
2	0.056310005
1	0.040269392
1	0.045058745
1	0.04612045
1	0.050443044
1	0.054432683
1	0.062695973
1	0.072163126
1	0.057024489
1	0.075636346
4	0.040232344
1	0.04053868
1	0.060397547
1	0.050356692
1	0.05030874
1	0.050328778
2	0.051300938
1	0.070467519
1	0.054917612
1	0.207213134
2	0.083128486
1	0.07617071
1	0.070455044
1	0.060379333
4	0.053733153
1	0.050341885
1	0.071948748
1	0.050946481
1	0.056379246
1	0.042261374
1	0.040259405
1	0.063160171
1	0.050359113
1	0.050327239
1	0.055173395
1	0.061861603
1	0.065160115
1	0.050391019
1	0.050328512
1	0.064399329
1	0.050488214
1	0.042495136
1	0.060788495
1	0.040300738
1	0.060376973
1	0.06680486
1	0.056276439
1	0.045865934
1	0.062157776
1	0.040303435
1	0.040250847
1	0.064666642
1	0.060778186
1	0.05474484
1	0.062715139
1	0.061357735
1	0.050610027
1	0.040298778
1	0.040261984
1	0.060397024
1	0.040781215
1	0.060421927
1	0.060623077
1	0.117651634
1	0.113964797
1	0.092246063
1	0.127559296
1	0.096528509
1	0.10090162
1	0.064039424
1	0.070991181
1	0.06248053
1	0.070598535
1	0.055913948
1	0.074036338
1	0.070524192
1	0.053508426
1	0.050256643
1	0.064255837
1	0.060549646
1	0.06055396
1	0.093570021
1	0.066107998
1	0.056781254
1	0.065284754
1	0.05060197
1	0.054402918
2	0.060381296
1	0.061606237
1	0.06709508
1	0.063203966
1	0.070658566
1	0.06170011
1	0.060774544
1	0.070428205
1	0.05032705
1	0.070455145
1	0.050439502
1	0.065605482
1	0.071711449
1	0.073613517
1	0.050309704
1	0.060416423
1	0.063997122
1	0.050493431
1	0.083537539
1	0.065244941
1	0.055559368
1	0.060382812
1	0.066890046
1	0.070479277
1	0.060412608
3	0.063246969
1	0.050311112
1	0.05031857
1	0.064646632
3	0.060440969
1	0.050923792
3	0.08521822
3	0.051862568
3	0.050370396
3	0.050372697
3	0.055103318
3	0.081444837
1	0.050339187
3	0.050363784
3	0.060382131
1	0.060493204
1	0.050325738
1	0.060426501
1	0.055997549
1	0.052299844
1	0.053565915
1	0.042931298
1	0.055223728
1	0.055702364
1	0.076461024
1	0.071367808
1	0.070391637
1	0.060391422
1	0.065944964
1	0.074669333
1	0.060448045
1	0.050324334
1	0.060860853
1	0.054136761
1	0.070453201
1	0.063176125
1	0.050460581
1	0.060461063
1	0.050506538
1	0.051475991
1	0.073423093
1	0.080473975
1	0.070509086
1	0.066113463
1	0.052890552
1	0.052348868
3	0.050322014
3	0.050515484
3	0.071466155
1	0.129929526
1	0.142615648
1	0.114166416
1	0.121598798
1	0.11096356
1	0.106132766
3	0.085670317
1	0.06460375
1	0.070890514
4	0.096919437
4	0.081163111
4	0.064394265
1	0.063119443
4	0.070812204
4	0.060410203
4	0.052894
1	0.054625016
1	0.050324327
4	0.060555888
4	0.070611315
4	0.060591806
4	0.063013642
4	0.062543089
4	0.071500221
4	0.060400772
4	0.060506238
4	0.049328416
4	0.060391149
1	0.060595389
1	0.064724551
4	0.0721963
1	0.070520672
1	0.08061516
1	0.070447629
1	0.050319434
1	0.060432409
1	0.11622342
1	0.09308997
1	0.097996535
3	0.074049797
3	0.080684125
3	0.070481756
3	0.06086142
3	0.070853992
3	0.060630284
3	0.064660776
3	0.06288048
1	0.062807127
3	0.060395251
4	0.05036656
4	0.081396908
1	0.065612504
1	0.066327343
1	0.062365529
1	0.064269375
1	0.072831001
1	0.050953288
1	0.090567985
1	0.081792353
1	0.053935869
1	0.07343545
1	0.06312361
1	0.053120535
1	0.050577645
1	0.060373099
1	0.060383202
1	0.049516704
1	0.050340013
4	0.050363352
3	0.076586829
1	0.060354418
3	0.050341285
1	0.085108478
1	0.086066798
1	0.060804003
1	0.040259725
1	0.060472177
1	0.040271922
1	0.074385638
1	0.071249157
1	0.0504299
1	0.060551294
1	0.070471833
1	0.060707228
1	0.05040728
1	0.066033406
1	0.046102929
1	0.050325297
1	0.050322436
1	0.052493717
1	0.050317787
4	0.070476138
4	0.050313026
1	0.117011746
1	0.149028134
1	0.15352555
1	0.124366123
1	0.112794917
1	0.10916854
1	0.081640102
1	0.093659906
1	0.050323142
1	0.060393674
1	0.065560502
1	0.06559176
1	0.06099318
1	0.073091962
1	0.065552164
1	0.068116832
1	0.095579544
1	0.051360563
1	0.059456509
1	0.06345232
1	0.070471819
1	0.081490966
1	0.077046015
1	0.070436835
1	0.080814826
1	0.104598711
1	0.073021249
1	0.083710361
1	0.082884841
1	0.088528563
1	0.064139163
1	0.074650586
1	0.063609432
1	0.061238206
1	0.081148655
1	0.043670383
1	0.083018094
1	0.06041208
1	0.060810494
1	0.0503196
1	0.070640995
1	0.064143794
1	0.062458517
1	0.093675364
1	0.071811072
1	0.067088869
1	0.06208542
1	0.07159717
1	0.070552117
1	0.070609951
1	0.071024938
1	0.060394827
1	0.090682848
